Fall_2022/proj2/trace.vcd
$version Generated by VerilatedVcd $end
$date Mon Sep 19 17:09:33 2022
 $end
$timescale   1ps $end

 $scope module TOP $end
  $var wire  1 X! clk $end
  $var wire  1 Y! reset $end
  $scope module pipeline $end
   $var wire 144 1 AGEX_latch_out [143:0] $end
   $var wire 239 ) DE_latch_out [238:0] $end
   $var wire 132 $ FE_latch_out [131:0] $end
   $var wire 144 6 MEM_latch_out [143:0] $end
   $var wire  1 X! clk $end
   $var wire 32 # cycle_count [31:0] $end
   $var wire  1 @" from_AGEX_to_DE [0:0] $end
   $var wire  1 =" from_AGEX_to_FE [0:0] $end
   $var wire  1 <" from_DE_to_FE [0:0] $end
   $var wire  1 B" from_MEM_to_AGEX [0:0] $end
   $var wire  1 A" from_MEM_to_DE [0:0] $end
   $var wire  1 >" from_MEM_to_FE [0:0] $end
   $var wire  1 C" from_WB_to_AGEX [0:0] $end
   $var wire 43 ; from_WB_to_DE [42:0] $end
   $var wire  1 ?" from_WB_to_FE [0:0] $end
   $var wire  1 D" from_WB_to_MEM [0:0] $end
   $var wire  1 Y! reset $end
   $scope module my_AGEX_stage $end
    $var wire 144 1 AGEX_latch [143:0] $end
    $var wire 144 c AGEX_latch_contents [143:0] $end
    $var wire 144 1 AGEX_latch_out [143:0] $end
    $var wire 32 i PC_AGEX [31:0] $end
    $var wire  1 q br_cond_AGEX $end
    $var wire  4 r bus_canary_AGEX [3:0] $end
    $var wire  1 X! clk $end
    $var wire  1 @" from_AGEX_to_DE [0:0] $end
    $var wire  1 =" from_AGEX_to_FE [0:0] $end
    $var wire 239 ) from_DE_latch [238:0] $end
    $var wire  1 B" from_MEM_to_AGEX [0:0] $end
    $var wire  1 C" from_WB_to_AGEX [0:0] $end
    $var wire 32 h inst_AGEX [31:0] $end
    $var wire 32 j inst_count_AGEX [31:0] $end
    $var wire  6 l op_I_AGEX [5:0] $end
    $var wire 32 k pcplus_AGEX [31:0] $end
    $var wire 32 t regval_AGEX [31:0] $end
    $var wire  1 Y! reset $end
    $var wire 32 m rs1_AGEX [31:0] $end
    $var wire 32 n rs2_AGEX [31:0] $end
    $var wire 32 p sxt_imm_AGEX [31:0] $end
    $var wire  1 s wr_reg_AGEX $end
    $var wire  5 o wregno_AGEX [4:0] $end
   $upscope $end
   $scope module my_DE_stage $end
    $var wire 239 ) DE_latch [238:0] $end
    $var wire 239 J DE_latch_contents [238:0] $end
    $var wire 239 ) DE_latch_out [238:0] $end
    $var wire  3 T F3_DE [2:0] $end
    $var wire  7 U F7_DE [6:0] $end
    $var wire 32 G PC_DE [31:0] $end
    $var wire 32 S RR_arith_result_DE [31:0] $end
    $var wire  4 R bus_canary_DE [3:0] $end
    $var wire  1 X! clk $end
    $var wire 32 H! csr_regs(0) [31:0] $end
    $var wire 32 I! csr_regs(1) [31:0] $end
    $var wire 32 R! csr_regs(10) [31:0] $end
    $var wire 32 S! csr_regs(11) [31:0] $end
    $var wire 32 T! csr_regs(12) [31:0] $end
    $var wire 32 U! csr_regs(13) [31:0] $end
    $var wire 32 V! csr_regs(14) [31:0] $end
    $var wire 32 W! csr_regs(15) [31:0] $end
    $var wire 32 J! csr_regs(2) [31:0] $end
    $var wire 32 K! csr_regs(3) [31:0] $end
    $var wire 32 L! csr_regs(4) [31:0] $end
    $var wire 32 M! csr_regs(5) [31:0] $end
    $var wire 32 N! csr_regs(6) [31:0] $end
    $var wire 32 O! csr_regs(7) [31:0] $end
    $var wire 32 P! csr_regs(8) [31:0] $end
    $var wire 32 Q! csr_regs(9) [31:0] $end
    $var wire  1 @" from_AGEX_to_DE [0:0] $end
    $var wire  1 <" from_DE_to_FE [0:0] $end
    $var wire 132 $ from_FE_latch [131:0] $end
    $var wire  1 A" from_MEM_to_DE [0:0] $end
    $var wire 43 ; from_WB_to_DE [42:0] $end
    $var wire 32 F inst_DE [31:0] $end
    $var wire 32 I inst_count_DE [31:0] $end
    $var wire  7 V op_DE [6:0] $end
    $var wire  6 W op_I_DE [5:0] $end
    $var wire 32 H pcplus_DE [31:0] $end
    $var wire  1 <" pipeline_stall_DE $end
    $var wire  5 b rd_DE [4:0] $end
    $var wire 32 (! regs(0) [31:0] $end
    $var wire 32 )! regs(1) [31:0] $end
    $var wire 32 2! regs(10) [31:0] $end
    $var wire 32 3! regs(11) [31:0] $end
    $var wire 32 4! regs(12) [31:0] $end
    $var wire 32 5! regs(13) [31:0] $end
    $var wire 32 6! regs(14) [31:0] $end
    $var wire 32 7! regs(15) [31:0] $end
    $var wire 32 8! regs(16) [31:0] $end
    $var wire 32 9! regs(17) [31:0] $end
    $var wire 32 :! regs(18) [31:0] $end
    $var wire 32 ;! regs(19) [31:0] $end
    $var wire 32 *! regs(2) [31:0] $end
    $var wire 32 <! regs(20) [31:0] $end
    $var wire 32 =! regs(21) [31:0] $end
    $var wire 32 >! regs(22) [31:0] $end
    $var wire 32 ?! regs(23) [31:0] $end
    $var wire 32 @! regs(24) [31:0] $end
    $var wire 32 A! regs(25) [31:0] $end
    $var wire 32 B! regs(26) [31:0] $end
    $var wire 32 C! regs(27) [31:0] $end
    $var wire 32 D! regs(28) [31:0] $end
    $var wire 32 E! regs(29) [31:0] $end
    $var wire 32 +! regs(3) [31:0] $end
    $var wire 32 F! regs(30) [31:0] $end
    $var wire 32 G! regs(31) [31:0] $end
    $var wire 32 ,! regs(4) [31:0] $end
    $var wire 32 -! regs(5) [31:0] $end
    $var wire 32 .! regs(6) [31:0] $end
    $var wire 32 /! regs(7) [31:0] $end
    $var wire 32 0! regs(8) [31:0] $end
    $var wire 32 1! regs(9) [31:0] $end
    $var wire 32 ] regval_WB [31:0] $end
    $var wire  1 Y! reset $end
    $var wire 32 ` rs1_DE [31:0] $end
    $var wire 32 a rs2_DE [31:0] $end
    $var wire 32 Z sxt_imm_DE [31:0] $end
    $var wire  4 X type_I_DE [3:0] $end
    $var wire  3 Y type_immediate_DE [2:0] $end
    $var wire  4 ^ wcsrno_WB [3:0] $end
    $var wire  1 _ wr_csr_WB $end
    $var wire  1 [ wr_reg_WB $end
    $var wire  5 \ wregno_WB [4:0] $end
   $upscope $end
   $scope module my_FE_stage $end
    $var wire 132 $ FE_latch [131:0] $end
    $var wire 132 @ FE_latch_contents [131:0] $end
    $var wire 132 $ FE_latch_out [131:0] $end
    $var wire 32 = PC_FE_latch [31:0] $end
    $var wire  1 X! clk $end
    $var wire  1 =" from_AGEX_to_FE [0:0] $end
    $var wire  1 <" from_DE_to_FE [0:0] $end
    $var wire  1 >" from_MEM_to_FE [0:0] $end
    $var wire  1 ?" from_WB_to_FE [0:0] $end
    $var wire 32 > inst_FE [31:0] $end
    $var wire 32 F" inst_count_AGEX [31:0] $end
    $var wire 32 E inst_count_FE [31:0] $end
    $var wire 32 ? pcplus_FE [31:0] $end
    $var wire  1 Y! reset $end
    $var wire  1 E" stall_pipe_FE $end
   $upscope $end
   $scope module my_MEM_stage $end
    $var wire 144 6 MEM_latch [143:0] $end
    $var wire 144 1 MEM_latch_contents [143:0] $end
    $var wire 144 6 MEM_latch_out [143:0] $end
    $var wire 32 x PC_MEM [31:0] $end
    $var wire  4 y bus_canary_MEM [3:0] $end
    $var wire  1 X! clk $end
    $var wire 144 1 from_AGEX_latch [143:0] $end
    $var wire  1 B" from_MEM_to_AGEX [0:0] $end
    $var wire  1 A" from_MEM_to_DE [0:0] $end
    $var wire  1 >" from_MEM_to_FE [0:0] $end
    $var wire  1 D" from_WB_to_MEM [0:0] $end
    $var wire 32 w inst_MEM [31:0] $end
    $var wire 32 v inst_count_MEM [31:0] $end
    $var wire 32 G" memaddr_MEM [31:0] $end
    $var wire  6 u op_I_MEM [5:0] $end
    $var wire 32 z rd_val_MEM [31:0] $end
    $var wire 32 } regval_MEM [31:0] $end
    $var wire  1 Y! reset $end
    $var wire  1 I" wr_mem_MEM $end
    $var wire  1 { wr_reg_MEM $end
    $var wire 32 H" wr_val_MEM [31:0] $end
    $var wire  5 | wregno_MEM [4:0] $end
   $upscope $end
   $scope module my_WB_stage $end
    $var wire 32 "! PC_WB [31:0] $end
    $var wire 32 z! WB_counters(0) [31:0] $end
    $var wire 32 {! WB_counters(1) [31:0] $end
    $var wire 32 &" WB_counters(10) [31:0] $end
    $var wire 32 '" WB_counters(11) [31:0] $end
    $var wire 32 (" WB_counters(12) [31:0] $end
    $var wire 32 )" WB_counters(13) [31:0] $end
    $var wire 32 *" WB_counters(14) [31:0] $end
    $var wire 32 +" WB_counters(15) [31:0] $end
    $var wire 32 ," WB_counters(16) [31:0] $end
    $var wire 32 -" WB_counters(17) [31:0] $end
    $var wire 32 ." WB_counters(18) [31:0] $end
    $var wire 32 /" WB_counters(19) [31:0] $end
    $var wire 32 |! WB_counters(2) [31:0] $end
    $var wire 32 0" WB_counters(20) [31:0] $end
    $var wire 32 1" WB_counters(21) [31:0] $end
    $var wire 32 2" WB_counters(22) [31:0] $end
    $var wire 32 3" WB_counters(23) [31:0] $end
    $var wire 32 4" WB_counters(24) [31:0] $end
    $var wire 32 5" WB_counters(25) [31:0] $end
    $var wire 32 6" WB_counters(26) [31:0] $end
    $var wire 32 7" WB_counters(27) [31:0] $end
    $var wire 32 8" WB_counters(28) [31:0] $end
    $var wire 32 9" WB_counters(29) [31:0] $end
    $var wire 32 }! WB_counters(3) [31:0] $end
    $var wire 32 :" WB_counters(30) [31:0] $end
    $var wire 32 ;" WB_counters(31) [31:0] $end
    $var wire 32 ~! WB_counters(4) [31:0] $end
    $var wire 32 !" WB_counters(5) [31:0] $end
    $var wire 32 "" WB_counters(6) [31:0] $end
    $var wire 32 #" WB_counters(7) [31:0] $end
    $var wire 32 $" WB_counters(8) [31:0] $end
    $var wire 32 %" WB_counters(9) [31:0] $end
    $var wire  4 $! bus_canary_WB [3:0] $end
    $var wire  1 X! clk $end
    $var wire 144 6 from_MEM_latch [143:0] $end
    $var wire  1 C" from_WB_to_AGEX [0:0] $end
    $var wire 43 ; from_WB_to_DE [42:0] $end
    $var wire  1 ?" from_WB_to_FE [0:0] $end
    $var wire  1 D" from_WB_to_MEM [0:0] $end
    $var wire 32 !! inst_WB [31:0] $end
    $var wire 32 #! inst_count_WB [31:0] $end
    $var wire 32 Z! last_WB_value(0) [31:0] $end
    $var wire 32 [! last_WB_value(1) [31:0] $end
    $var wire 32 d! last_WB_value(10) [31:0] $end
    $var wire 32 e! last_WB_value(11) [31:0] $end
    $var wire 32 f! last_WB_value(12) [31:0] $end
    $var wire 32 g! last_WB_value(13) [31:0] $end
    $var wire 32 h! last_WB_value(14) [31:0] $end
    $var wire 32 i! last_WB_value(15) [31:0] $end
    $var wire 32 j! last_WB_value(16) [31:0] $end
    $var wire 32 k! last_WB_value(17) [31:0] $end
    $var wire 32 l! last_WB_value(18) [31:0] $end
    $var wire 32 m! last_WB_value(19) [31:0] $end
    $var wire 32 \! last_WB_value(2) [31:0] $end
    $var wire 32 n! last_WB_value(20) [31:0] $end
    $var wire 32 o! last_WB_value(21) [31:0] $end
    $var wire 32 p! last_WB_value(22) [31:0] $end
    $var wire 32 q! last_WB_value(23) [31:0] $end
    $var wire 32 r! last_WB_value(24) [31:0] $end
    $var wire 32 s! last_WB_value(25) [31:0] $end
    $var wire 32 t! last_WB_value(26) [31:0] $end
    $var wire 32 u! last_WB_value(27) [31:0] $end
    $var wire 32 v! last_WB_value(28) [31:0] $end
    $var wire 32 w! last_WB_value(29) [31:0] $end
    $var wire 32 ]! last_WB_value(3) [31:0] $end
    $var wire 32 x! last_WB_value(30) [31:0] $end
    $var wire 32 y! last_WB_value(31) [31:0] $end
    $var wire 32 ^! last_WB_value(4) [31:0] $end
    $var wire 32 _! last_WB_value(5) [31:0] $end
    $var wire 32 `! last_WB_value(6) [31:0] $end
    $var wire 32 a! last_WB_value(7) [31:0] $end
    $var wire 32 b! last_WB_value(8) [31:0] $end
    $var wire 32 c! last_WB_value(9) [31:0] $end
    $var wire  6 ~ op_I_WB [5:0] $end
    $var wire 32 '! regval_WB [31:0] $end
    $var wire  1 Y! reset $end
    $var wire  4 J" wcsrno_WB [3:0] $end
    $var wire  1 K" wr_csr_WB $end
    $var wire  1 %! wr_reg_WB $end
    $var wire  5 &! wregno_WB [4:0] $end
   $upscope $end
  $upscope $end
 $upscope $end
$enddefinitions $end


#0
b00000000000000000000000000000000 #
b000000000000000000000000000000000000000000000000000000000000000000000000000000000000000000000000000000000000000000000000000000000000 $
b00000000000000000000000000000000000000000000000000000000000000000000000000000000000000000000000000000000000000000000000000000000000000000000000000000000000000000000000000000000000000000000000000000000000000000000000000000000000000000000000 )
b000000000000000000000000000000000000000000000000000000000000000000000000000000000000000000000000000000000000000000000000000000000000000000000000 1
b000000000000000000000000000000000000000000000000000000000000000000000000000000000000000000000000000000000000000000000000000000000000000000000000 6
b0000000000000000000000000000000000000000000 ;
b00000000000000000000000000000000 =
b00000000000000000000000100000000 >
b00000000000000000000000000000100 ?
b000000000000000000000001000000000000000000000000000000000000000000000000000000000000000000000100000000000000000000000000000000001111 @
b00000000000000000000000000000000 E
b00000000000000000000000000000000 F
b00000000000000000000000000000000 G
b00000000000000000000000000000000 H
b00000000000000000000000000000000 I
b00000000000000000000000000000000000000000000000000000000000000000000000000000000000000000000000010010100000000000000000000000000000000000000000000000000000000000000000000000000000000000000000000000000000000000000000000000000000000000000000 J
b0000 R
b00000000000000000000000000000000 S
b000 T
b0000000 U
b0000000 V
b100101 W
b0000 X
b000 Y
b00000000000000000000000000000000 Z
0[
b00000 \
b00000000000000000000000000000000 ]
b0000 ^
0_
b00000000000000000000000000000000 `
b00000000000000000000000000000000 a
b00000 b
b000000000000000000000000000000000000000000000000000000000000000000000000000000000000000000000000000000000000000000000000000000000000000000000000 c
b00000000000000000000000000000000 h
b00000000000000000000000000000000 i
b00000000000000000000000000000000 j
b00000000000000000000000000000000 k
b000000 l
b00000000000000000000000000000000 m
b00000000000000000000000000000000 n
b00000 o
b00000000000000000000000000000000 p
0q
b0000 r
0s
b00000000000000000000000000000000 t
b000000 u
b00000000000000000000000000000000 v
b00000000000000000000000000000000 w
b00000000000000000000000000000000 x
b0000 y
b00000000000000000000000100000000 z
0{
b00000 |
b00000000000000000000000000000000 }
b000000 ~
b00000000000000000000000000000000 !!
b00000000000000000000000000000000 "!
b00000000000000000000000000000000 #!
b0000 $!
0%!
b00000 &!
b00000000000000000000000000000000 '!
b00000000000000000000000000000000 (!
b00000000000000000000000000000000 )!
b00000000000000000000000000000000 *!
b00000000000000000000000000000000 +!
b00000000000000000000000000000000 ,!
b00000000000000000000000000000000 -!
b00000000000000000000000000000000 .!
b00000000000000000000000000000000 /!
b00000000000000000000000000000000 0!
b00000000000000000000000000000000 1!
b00000000000000000000000000000000 2!
b00000000000000000000000000000000 3!
b00000000000000000000000000000000 4!
b00000000000000000000000000000000 5!
b00000000000000000000000000000000 6!
b00000000000000000000000000000000 7!
b00000000000000000000000000000000 8!
b00000000000000000000000000000000 9!
b00000000000000000000000000000000 :!
b00000000000000000000000000000000 ;!
b00000000000000000000000000000000 <!
b00000000000000000000000000000000 =!
b00000000000000000000000000000000 >!
b00000000000000000000000000000000 ?!
b00000000000000000000000000000000 @!
b00000000000000000000000000000000 A!
b00000000000000000000000000000000 B!
b00000000000000000000000000000000 C!
b00000000000000000000000000000000 D!
b00000000000000000000000000000000 E!
b00000000000000000000000000000000 F!
b00000000000000000000000000000000 G!
b00000000000000000000000000000000 H!
b00000000000000000000000000000000 I!
b00000000000000000000000000000000 J!
b00000000000000000000000000000000 K!
b00000000000000000000000000000000 L!
b00000000000000000000000000000000 M!
b00000000000000000000000000000000 N!
b00000000000000000000000000000000 O!
b00000000000000000000000000000000 P!
b00000000000000000000000000000000 Q!
b00000000000000000000000000000000 R!
b00000000000000000000000000000000 S!
b00000000000000000000000000000000 T!
b00000000000000000000000000000000 U!
b00000000000000000000000000000000 V!
b00000000000000000000000000000000 W!
0X!
0Y!
b00000000000000000000000000000000 Z!
b00000000000000000000000000000000 [!
b00000000000000000000000000000000 \!
b00000000000000000000000000000000 ]!
b00000000000000000000000000000000 ^!
b00000000000000000000000000000000 _!
b00000000000000000000000000000000 `!
b00000000000000000000000000000000 a!
b00000000000000000000000000000000 b!
b00000000000000000000000000000000 c!
b00000000000000000000000000000000 d!
b00000000000000000000000000000000 e!
b00000000000000000000000000000000 f!
b00000000000000000000000000000000 g!
b00000000000000000000000000000000 h!
b00000000000000000000000000000000 i!
b00000000000000000000000000000000 j!
b00000000000000000000000000000000 k!
b00000000000000000000000000000000 l!
b00000000000000000000000000000000 m!
b00000000000000000000000000000000 n!
b00000000000000000000000000000000 o!
b00000000000000000000000000000000 p!
b00000000000000000000000000000000 q!
b00000000000000000000000000000000 r!
b00000000000000000000000000000000 s!
b00000000000000000000000000000000 t!
b00000000000000000000000000000000 u!
b00000000000000000000000000000000 v!
b00000000000000000000000000000000 w!
b00000000000000000000000000000000 x!
b00000000000000000000000000000000 y!
b00000000000000000000000000000000 z!
b00000000000000000000000000000000 {!
b00000000000000000000000000000000 |!
b00000000000000000000000000000000 }!
b00000000000000000000000000000000 ~!
b00000000000000000000000000000000 !"
b00000000000000000000000000000000 ""
b00000000000000000000000000000000 #"
b00000000000000000000000000000000 $"
b00000000000000000000000000000000 %"
b00000000000000000000000000000000 &"
b00000000000000000000000000000000 '"
b00000000000000000000000000000000 ("
b00000000000000000000000000000000 )"
b00000000000000000000000000000000 *"
b00000000000000000000000000000000 +"
b00000000000000000000000000000000 ,"
b00000000000000000000000000000000 -"
b00000000000000000000000000000000 ."
b00000000000000000000000000000000 /"
b00000000000000000000000000000000 0"
b00000000000000000000000000000000 1"
b00000000000000000000000000000000 2"
b00000000000000000000000000000000 3"
b00000000000000000000000000000000 4"
b00000000000000000000000000000000 5"
b00000000000000000000000000000000 6"
b00000000000000000000000000000000 7"
b00000000000000000000000000000000 8"
b00000000000000000000000000000000 9"
b00000000000000000000000000000000 :"
b00000000000000000000000000000000 ;"
0<"
0="
0>"
0?"
0@"
0A"
0B"
0C"
0D"
0E"
b00000000000000000000000000000000 F"
b00000000000000000000000000000000 G"
b00000000000000000000000000000000 H"
0I"
b0000 J"
0K"
#1
b00000000000000000000000000000001 #
b000000000000000000000001000000000000000000000000000000000000000000000000000000000000000000000100000000000000000000000000000000001111 $
b00000000000000000000000000000000000000000000000000000000000000000000000000000000000000000000000010010100000000000000000000000000000000000000000000000000000000000000000000000000000000000000000000000000000000000000000000000000000000000000000 )
b00000000000000000000000000000100 =
b00000000000000000000000100010011 >
b00000000000000000000000000001000 ?
b000000000000000000000001000100110000000000000000000000000000010000000000000000000000000000001000000000000000000000000000000000011111 @
b00000000000000000000000000000001 E
b00000000000000000000000100000000 F
b00000000000000000000000000000100 H
b00000000000000000000000100000000000000000000000000000000000000000000000000000000000000000000010010010100000000000000000000000000000000000000000000000000000000000000000000000000000000000000000000000000010000000000000000000000000000000001111 J
b1111 R
b00010 b
b000000000000000000000000000000000000000000000000000000000000000010010100000000000000000000000000000000000000000000000000000000000000000000000000 c
b100101 l
1X!
#2
0X!
1Y!
#3
b00000000000000000000000000000000 #
b000000000000000000000000000000000000000000000000000000000000000000000000000000000000000000000000000000000000000000000000000000000000 $
b00000000000000000000000000000000000000000000000000000000000000000000000000000000000000000000000000000000000000000000000000000000000000000000000000000000000000000000000000000000000000000000000000000000000000000000000000000000000000000000000 )
b00000000000000000000001000000000 =
b00000000000100000000000110010011 >
b00000000000000000000001000000100 ?
b000000000001000000000001100100110000000000000000000000100000000000000000000000000000001000000100000000000000000000000000000000011111 @
b00000000000000000000000000000000 F
b00000000000000000000000000000000 H
b00000000000000000000000000000000000000000000000000000000000000000000000000000000000000000000000010010100000000000000000000000000000000000000000000000000000000000000000000000000000000000000000000000000000000000000000000000000000000000000000 J
b0000 R
b00000 b
b000000000000000000000000000000000000000000000000000000000000000000000000000000000000000000000000000000000000000000000000000000000000000000000000 c
b000000 l
1X!
#4
0X!
#5
1X!
#6
0X!
#7
1X!
#8
0X!
#9
1X!
#10
#11
0X!
#12
1X!
#13
0X!
#14
1X!
#15
0X!
#16
1X!
#17
0X!
#18
1X!
#19
0X!
#20
#21
1X!
#22
0X!
#23
1X!
#24
0X!
#25
1X!
#26
0X!
#27
1X!
#28
0X!
#29
1X!
#30
#31
0X!
#32
1X!
#33
0X!
#34
1X!
#35
0X!
#36
1X!
#37
0X!
#38
1X!
#39
0X!
#40
#41
1X!
#42
0X!
#43
1X!
#44
0X!
#45
1X!
#46
0X!
#47
1X!
#48
0X!
#49
1X!
#50
#51
0X!
#52
1X!
#53
0X!
#54
1X!
#55
0X!
#56
1X!
#57
0X!
#58
1X!
#59
0X!
#60
#61
1X!
#62
0X!
#63
1X!
#64
0X!
#65
1X!
#66
0X!
#67
1X!
#68
0X!
#69
1X!
#70
#71
0X!
#72
1X!
#73
0X!
#74
1X!
#75
0X!
#76
1X!
#77
0X!
#78
1X!
#79
0X!
#80
#81
1X!
#82
0X!
#83
1X!
#84
0X!
#85
1X!
#86
0X!
#87
1X!
#88
0X!
#89
1X!
#90
#91
0X!
#92
1X!
#93
0X!
#94
1X!
#95
0X!
#96
1X!
#97
0X!
#98
1X!
#99
0X!
#100
0Y!
#101
b00000000000000000000000000000001 #
b000000000001000000000001100100110000000000000000000000100000000000000000000000000000001000000100000000000000000000000000000000011111 $
b00000000000000000000000000000000000000000000000000000000000000000000000000000000000000000000000010010100000000000000000000000000000000000000000000000000000000000000000000000000000000000000000000000000000000000000000000000000000000000000000 )
b00000000000000000000001000000100 =
b00000000000000000000000000000000 >
b00000000000000000000001000001000 ?
b000000000000000000000000000000000000000000000000000000100000010000000000000000000000001000001000000000000000000000000000000000101111 @
b00000000000000000000000000000010 E
b00000000000100000000000110010011 F
b00000000000000000000001000000000 G
b00000000000000000000001000000100 H
b00000000000000000000000000000001 I
b00000000000100000000000110010011000000000000000000000010000000000000000000000000000000100000010000110000000000000000000000000000000001000000000000000000000000000000000000000000000000000000000000000000011000000000000000000000000000000011111 J
b1111 R
b0010011 V
b001100 W
b0010 X
b001 Y
b00000000000000000000000000000001 Z
b00011 b
b000000000000000000000000000000000000000000000000000000000000000010010100000000000000000000000000000000000000000000000000000000000000000000000000 c
b100101 l
1X!
#102
0X!
#103
b00000000000000000000000000000010 #
b000000000000000000000000000000000000000000000000000000100000010000000000000000000000001000001000000000000000000000000000000000101111 $
b00000000000100000000000110010011000000000000000000000010000000000000000000000000000000100000010000110000000000000000000000000000000001000000000000000000000000000000000000000000000000000000000000000000011000000000000000000000000000000011111 )
b000000000000000000000000000000000000000000000000000000000000000010010100000000000000000000000000000000000000000000000000000000000000000000000000 1
b00000000000000000000001000001000 =
b00000000000000000000001000001100 ?
b000000000000000000000000000000000000000000000000000000100000100000000000000000000000001000001100000000000000000000000000000000111111 @
b00000000000000000000000000000011 E
b00000000000000000000000000000000 F
b00000000000000000000001000000100 G
b00000000000000000000001000001000 H
b00000000000000000000000000000010 I
b00000000000000000000000000000000000000000000000000000010000001000000000000000000000000100000100010010100000000000000000000000000000010000000000000000000000000000000000000000000000000000000000000000000000000000000000000000000000000000001111 J
b0000000 V
b100101 W
b00000000000000000000000000000000 Z
b00000 b
b000000000001000000000001100100110000000000000000000000100000000000110000000000000000000000000000000001000000000000000000000000000000011000111111 c
b00000000000100000000000110010011 h
b00000000000000000000001000000000 i
b00000000000000000000000000000001 j
b00000000000000000000001000000100 k
b001100 l
b00011 o
b00000000000000000000000000000001 p
b1111 r
1s
b00000000000000000000000000000001 t
b100101 u
1X!
#104
0X!
#105
b00000000000000000000000000000011 #
b000000000000000000000000000000000000000000000000000000100000100000000000000000000000001000001100000000000000000000000000000000111111 $
b00000000000000000000000000000000000000000000000000000010000001000000000000000000000000100000100010010100000000000000000000000000000010000000000000000000000000000000000000000000000000000000000000000000000000000000000000000000000000000001111 )
b000000000001000000000001100100110000000000000000000000100000000000110000000000000000000000000000000001000000000000000000000000000000011000111111 1
b000000000000000000000000000000000000000000000000000000000000000010010100000000000000000000000000000000000000000000000000000000000000000000000000 6
b00000000000000000000001000001100 =
b00000000000000000000001000010000 ?
b000000000000000000000000000000000000000000000000000000100000110000000000000000000000001000010000000000000000000000000000000001001111 @
b00000000000000000000000000000100 E
b00000000000000000000001000001000 G
b00000000000000000000001000001100 H
b00000000000000000000000000000011 I
b00000000000000000000000000000000000000000000000000000010000010000000000000000000000000100000110010010100000000000000000000000000000011000000000000000000000000000000000000000000000000000000000000000000000000000000000000000000000000000001111 J
b000000000000000000000000000000000000000000000000000000100000010010010100000000000000000000000000000010000000000000000000000000000000010000001111 c
b00000000000000000000000000000000 h
b00000000000000000000001000000100 i
b00000000000000000000000000000010 j
b00000000000000000000001000001000 k
b100101 l
b00000 o
b00000000000000000000000000000000 p
0s
b001100 u
b00000000000000000000000000000001 v
b00000000000100000000000110010011 w
b00000000000000000000001000000000 x
b1111 y
1{
b00011 |
b00000000000000000000000000000001 }
b100101 ~
1X!
#106
0X!
#107
b00000000000000000000000000000100 #
b000000000000000000000000000000000000000000000000000000100000110000000000000000000000001000010000000000000000000000000000000001001111 $
b00000000000000000000000000000000000000000000000000000010000010000000000000000000000000100000110010010100000000000000000000000000000011000000000000000000000000000000000000000000000000000000000000000000000000000000000000000000000000000001111 )
b000000000000000000000000000000000000000000000000000000100000010010010100000000000000000000000000000010000000000000000000000000000000010000001111 1
b000000000001000000000001100100110000000000000000000000100000000000110000000000000000000000000000000001000000000000000000000000000000011000111111 6
b0000000000000000000000000000000110001100000 ;
b00000000000000000000001000010000 =
b00000000000000000000001000010100 ?
b000000000000000000000000000000000000000000000000000000100001000000000000000000000000001000010100000000000000000000000000000001011111 @
b00000000000000000000000000000101 E
b00000000000000000000001000001100 G
b00000000000000000000001000010000 H
b00000000000000000000000000000100 I
b00000000000000000000000000000000000000000000000000000010000011000000000000000000000000100001000010010100000000000000000000000000000100000000000000000000000000000000000000000000000000000000000000000000000000000000000000000000000000000001111 J
b00000000000000000000000001100011 ]
b000000000000000000000000000000000000000000000000000000100000100010010100000000000000000000000000000011000000000000000000000000000000010000001111 c
b00000000000000000000001000001000 i
b00000000000000000000000000000011 j
b00000000000000000000001000001100 k
b100101 u
b00000000000000000000000000000010 v
b00000000000000000000000000000000 w
b00000000000000000000001000000100 x
0{
b00000 |
b001100 ~
b00000000000100000000000110010011 !!
b00000000000000000000001000000000 "!
b00000000000000000000000000000001 #!
b1111 $!
b00000000000000000000000001100011 '!
1X!
b00000000000000000000000000100101 ""
#108
0X!
#109
b00000000000000000000000000000101 #
b000000000000000000000000000000000000000000000000000000100001000000000000000000000000001000010100000000000000000000000000000001011111 $
b00000000000000000000000000000000000000000000000000000010000011000000000000000000000000100001000010010100000000000000000000000000000100000000000000000000000000000000000000000000000000000000000000000000000000000000000000000000000000000001111 )
b000000000000000000000000000000000000000000000000000000100000100010010100000000000000000000000000000011000000000000000000000000000000010000001111 1
b000000000000000000000000000000000000000000000000000000100000010010010100000000000000000000000000000010000000000000000000000000000000010000001111 6
b0000000000000000000000000000000100000000000 ;
b00000000000000000000001000010100 =
b00000000000000000000001000011000 ?
b000000000000000000000000000000000000000000000000000000100001010000000000000000000000001000011000000000000000000000000000000001101111 @
b00000000000000000000000000000110 E
b00000000000000000000001000010000 G
b00000000000000000000001000010100 H
b00000000000000000000000000000101 I
b00000000000000000000000000000000000000000000000000000010000100000000000000000000000000100001010010010100000000000000000000000000000101000000000000000000000000000000000000000000000000000000000000000000000000000000000000000000000000000001111 J
b00000000000000000000000001000000 ]
b000000000000000000000000000000000000000000000000000000100000110010010100000000000000000000000000000100000000000000000000000000000000010000001111 c
b00000000000000000000001000001100 i
b00000000000000000000000000000100 j
b00000000000000000000001000010000 k
b00000000000000000000000000000011 v
b00000000000000000000001000001000 x
b100101 ~
b00000000000000000000000000000000 !!
b00000000000000000000001000000100 "!
b00000000000000000000000000000010 #!
b00000000000000000000000001000000 '!
1X!
b00000000000000000000001000000000 {!
b00000000000100000000000110010011 |!
b00000000000000000000000001100011 ~!
b00000000000000000000000000000001 !"
b00000000000000000000000000001100 ""
#110
#111
0X!
#112
b00000000000000000000000000000110 #
b000000000000000000000000000000000000000000000000000000100001010000000000000000000000001000011000000000000000000000000000000001101111 $
b00000000000000000000000000000000000000000000000000000010000100000000000000000000000000100001010010010100000000000000000000000000000101000000000000000000000000000000000000000000000000000000000000000000000000000000000000000000000000000001111 )
b000000000000000000000000000000000000000000000000000000100000110010010100000000000000000000000000000100000000000000000000000000000000010000001111 1
b000000000000000000000000000000000000000000000000000000100000100010010100000000000000000000000000000011000000000000000000000000000000010000001111 6
b00000000000000000000001000011000 =
b00000000000000000000001000011100 ?
b000000000000000000000000000000000000000000000000000000100001100000000000000000000000001000011100000000000000000000000000000001111111 @
b00000000000000000000000000000111 E
b00000000000000000000001000010100 G
b00000000000000000000001000011000 H
b00000000000000000000000000000110 I
b00000000000000000000000000000000000000000000000000000010000101000000000000000000000000100001100010010100000000000000000000000000000110000000000000000000000000000000000000000000000000000000000000000000000000000000000000000000000000000001111 J
b000000000000000000000000000000000000000000000000000000100001000010010100000000000000000000000000000101000000000000000000000000000000010000001111 c
b00000000000000000000001000010000 i
b00000000000000000000000000000101 j
b00000000000000000000001000010100 k
b00000000000000000000000000000100 v
b00000000000000000000001000001100 x
b00000000000000000000001000001000 "!
b00000000000000000000000000000011 #!
1X!
b00000000000000000000001000000100 {!
b00000000000000000000000000000000 |!
b00000000000000000000000001000000 ~!
b00000000000000000000000000000010 !"
b00000000000000000000000000100101 ""
#113
0X!
