Fall_2022/proj2/trace.vcd
$version Generated by VerilatedVcd $end
$date Sun Sep 18 15:39:40 2022
 $end
$timescale   1ps $end

 $scope module TOP $end
  $var wire  1 O! clk $end
  $var wire  1 P! reset $end
  $scope module pipeline $end
   $var wire 106 h AGEX_latch_out [105:0] $end
   $var wire 239 ` DE_latch_out [238:0] $end
   $var wire 132 [ FE_latch_out [131:0] $end
   $var wire 106 l MEM_latch_out [105:0] $end
   $var wire  1 O! clk $end
   $var wire 32 Z cycle_count [31:0] $end
   $var wire  1 7" from_AGEX_to_DE [0:0] $end
   $var wire  1 4" from_AGEX_to_FE [0:0] $end
   $var wire  1 3" from_DE_to_FE [0:0] $end
   $var wire  1 9" from_MEM_to_AGEX [0:0] $end
   $var wire  1 8" from_MEM_to_DE [0:0] $end
   $var wire  1 5" from_MEM_to_FE [0:0] $end
   $var wire  1 :" from_WB_to_AGEX [0:0] $end
   $var wire 43 # from_WB_to_DE [42:0] $end
   $var wire  1 6" from_WB_to_FE [0:0] $end
   $var wire  1 ;" from_WB_to_MEM [0:0] $end
   $var wire  1 P! reset $end
   $scope module my_AGEX_stage $end
    $var wire 106 h AGEX_latch [105:0] $end
    $var wire 106 3! AGEX_latch_contents [105:0] $end
    $var wire 106 h AGEX_latch_out [105:0] $end
    $var wire 33 B! ALU_result_AGEX [32:0] $end
    $var wire 32 8! PC_AGEX [31:0] $end
    $var wire  1 @! br_cond_AGEX $end
    $var wire  4 A! bus_canary_AGEX [3:0] $end
    $var wire  1 O! clk $end
    $var wire  1 7" from_AGEX_to_DE [0:0] $end
    $var wire  1 4" from_AGEX_to_FE [0:0] $end
    $var wire 239 ` from_DE_latch [238:0] $end
    $var wire  1 9" from_MEM_to_AGEX [0:0] $end
    $var wire  1 :" from_WB_to_AGEX [0:0] $end
    $var wire 32 7! inst_AGEX [31:0] $end
    $var wire 32 9! inst_count_AGEX [31:0] $end
    $var wire  6 ;! op_I_AGEX [5:0] $end
    $var wire 32 :! pcplus_AGEX [31:0] $end
    $var wire  5 >! rd_AGEX [4:0] $end
    $var wire  1 P! reset $end
    $var wire 32 <! rs1_AGEX [31:0] $end
    $var wire 32 =! rs2_AGEX [31:0] $end
    $var wire 32 ?! sxt_imm_AGEX [31:0] $end
   $upscope $end
   $scope module my_DE_stage $end
    $var wire 239 ` DE_latch [238:0] $end
    $var wire 239 } DE_latch_contents [238:0] $end
    $var wire 239 ` DE_latch_out [238:0] $end
    $var wire  3 )! F3_DE [2:0] $end
    $var wire  7 *! F7_DE [6:0] $end
    $var wire 32 z PC_DE [31:0] $end
    $var wire 32 (! RR_arith_result_DE [31:0] $end
    $var wire  4 '! bus_canary_DE [3:0] $end
    $var wire  1 O! clk $end
    $var wire 32 J csr_regs(0) [31:0] $end
    $var wire 32 K csr_regs(1) [31:0] $end
    $var wire 32 T csr_regs(10) [31:0] $end
    $var wire 32 U csr_regs(11) [31:0] $end
    $var wire 32 V csr_regs(12) [31:0] $end
    $var wire 32 W csr_regs(13) [31:0] $end
    $var wire 32 X csr_regs(14) [31:0] $end
    $var wire 32 Y csr_regs(15) [31:0] $end
    $var wire 32 L csr_regs(2) [31:0] $end
    $var wire 32 M csr_regs(3) [31:0] $end
    $var wire 32 N csr_regs(4) [31:0] $end
    $var wire 32 O csr_regs(5) [31:0] $end
    $var wire 32 P csr_regs(6) [31:0] $end
    $var wire 32 Q csr_regs(7) [31:0] $end
    $var wire 32 R csr_regs(8) [31:0] $end
    $var wire 32 S csr_regs(9) [31:0] $end
    $var wire  1 7" from_AGEX_to_DE [0:0] $end
    $var wire  1 3" from_DE_to_FE [0:0] $end
    $var wire 132 [ from_FE_latch [131:0] $end
    $var wire  1 8" from_MEM_to_DE [0:0] $end
    $var wire 43 # from_WB_to_DE [42:0] $end
    $var wire 32 y inst_DE [31:0] $end
    $var wire 32 | inst_count_DE [31:0] $end
    $var wire  7 +! op_DE [6:0] $end
    $var wire  6 ,! op_I_DE [5:0] $end
    $var wire 32 { pcplus_DE [31:0] $end
    $var wire  1 3" pipeline_stall_DE $end
    $var wire  5 2! rd_DE [4:0] $end
    $var wire 32 * regs(0) [31:0] $end
    $var wire 32 + regs(1) [31:0] $end
    $var wire 32 4 regs(10) [31:0] $end
    $var wire 32 5 regs(11) [31:0] $end
    $var wire 32 6 regs(12) [31:0] $end
    $var wire 32 7 regs(13) [31:0] $end
    $var wire 32 8 regs(14) [31:0] $end
    $var wire 32 9 regs(15) [31:0] $end
    $var wire 32 : regs(16) [31:0] $end
    $var wire 32 ; regs(17) [31:0] $end
    $var wire 32 < regs(18) [31:0] $end
    $var wire 32 = regs(19) [31:0] $end
    $var wire 32 , regs(2) [31:0] $end
    $var wire 32 > regs(20) [31:0] $end
    $var wire 32 ? regs(21) [31:0] $end
    $var wire 32 @ regs(22) [31:0] $end
    $var wire 32 A regs(23) [31:0] $end
    $var wire 32 B regs(24) [31:0] $end
    $var wire 32 C regs(25) [31:0] $end
    $var wire 32 D regs(26) [31:0] $end
    $var wire 32 E regs(27) [31:0] $end
    $var wire 32 F regs(28) [31:0] $end
    $var wire 32 G regs(29) [31:0] $end
    $var wire 32 - regs(3) [31:0] $end
    $var wire 32 H regs(30) [31:0] $end
    $var wire 32 I regs(31) [31:0] $end
    $var wire 32 . regs(4) [31:0] $end
    $var wire 32 / regs(5) [31:0] $end
    $var wire 32 0 regs(6) [31:0] $end
    $var wire 32 1 regs(7) [31:0] $end
    $var wire 32 2 regs(8) [31:0] $end
    $var wire 32 3 regs(9) [31:0] $end
    $var wire 32 ' regval_WB [31:0] $end
    $var wire  1 P! reset $end
    $var wire 32 0! rs1_DE [31:0] $end
    $var wire 32 1! rs2_DE [31:0] $end
    $var wire 32 /! sxt_imm_DE [31:0] $end
    $var wire  4 -! type_I_DE [3:0] $end
    $var wire  3 .! type_immediate_DE [2:0] $end
    $var wire  4 ( wcsrno_WB [3:0] $end
    $var wire  1 ) wr_csr_WB $end
    $var wire  1 % wr_reg_WB $end
    $var wire  5 & wregno_WB [4:0] $end
   $upscope $end
   $scope module my_FE_stage $end
    $var wire 132 [ FE_latch [131:0] $end
    $var wire 132 s FE_latch_contents [131:0] $end
    $var wire 132 [ FE_latch_out [131:0] $end
    $var wire 32 p PC_FE_latch [31:0] $end
    $var wire  1 O! clk $end
    $var wire  1 4" from_AGEX_to_FE [0:0] $end
    $var wire  1 3" from_DE_to_FE [0:0] $end
    $var wire  1 5" from_MEM_to_FE [0:0] $end
    $var wire  1 6" from_WB_to_FE [0:0] $end
    $var wire 32 q inst_FE [31:0] $end
    $var wire 32 =" inst_count_AGEX [31:0] $end
    $var wire 32 x inst_count_FE [31:0] $end
    $var wire 32 r pcplus_FE [31:0] $end
    $var wire  1 P! reset $end
    $var wire  1 <" stall_pipe_FE $end
   $upscope $end
   $scope module my_MEM_stage $end
    $var wire 106 l MEM_latch [105:0] $end
    $var wire 106 h MEM_latch_contents [105:0] $end
    $var wire 106 l MEM_latch_out [105:0] $end
    $var wire 32 G! PC_MEM [31:0] $end
    $var wire  4 H! bus_canary_MEM [3:0] $end
    $var wire  1 O! clk $end
    $var wire 106 h from_AGEX_latch [105:0] $end
    $var wire  1 9" from_MEM_to_AGEX [0:0] $end
    $var wire  1 8" from_MEM_to_DE [0:0] $end
    $var wire  1 5" from_MEM_to_FE [0:0] $end
    $var wire  1 ;" from_WB_to_MEM [0:0] $end
    $var wire 32 F! inst_MEM [31:0] $end
    $var wire 32 E! inst_count_MEM [31:0] $end
    $var wire 32 >" memaddr_MEM [31:0] $end
    $var wire  6 D! op_I_MEM [5:0] $end
    $var wire 32 I! rd_val_MEM [31:0] $end
    $var wire  1 P! reset $end
    $var wire  1 @" wr_mem_MEM $end
    $var wire 32 ?" wr_val_MEM [31:0] $end
   $upscope $end
   $scope module my_WB_stage $end
    $var wire 32 L! PC_WB [31:0] $end
    $var wire 32 q! WB_counters(0) [31:0] $end
    $var wire 32 r! WB_counters(1) [31:0] $end
    $var wire 32 {! WB_counters(10) [31:0] $end
    $var wire 32 |! WB_counters(11) [31:0] $end
    $var wire 32 }! WB_counters(12) [31:0] $end
    $var wire 32 ~! WB_counters(13) [31:0] $end
    $var wire 32 !" WB_counters(14) [31:0] $end
    $var wire 32 "" WB_counters(15) [31:0] $end
    $var wire 32 #" WB_counters(16) [31:0] $end
    $var wire 32 $" WB_counters(17) [31:0] $end
    $var wire 32 %" WB_counters(18) [31:0] $end
    $var wire 32 &" WB_counters(19) [31:0] $end
    $var wire 32 s! WB_counters(2) [31:0] $end
    $var wire 32 '" WB_counters(20) [31:0] $end
    $var wire 32 (" WB_counters(21) [31:0] $end
    $var wire 32 )" WB_counters(22) [31:0] $end
    $var wire 32 *" WB_counters(23) [31:0] $end
    $var wire 32 +" WB_counters(24) [31:0] $end
    $var wire 32 ," WB_counters(25) [31:0] $end
    $var wire 32 -" WB_counters(26) [31:0] $end
    $var wire 32 ." WB_counters(27) [31:0] $end
    $var wire 32 /" WB_counters(28) [31:0] $end
    $var wire 32 0" WB_counters(29) [31:0] $end
    $var wire 32 t! WB_counters(3) [31:0] $end
    $var wire 32 1" WB_counters(30) [31:0] $end
    $var wire 32 2" WB_counters(31) [31:0] $end
    $var wire 32 u! WB_counters(4) [31:0] $end
    $var wire 32 v! WB_counters(5) [31:0] $end
    $var wire 32 w! WB_counters(6) [31:0] $end
    $var wire 32 x! WB_counters(7) [31:0] $end
    $var wire 32 y! WB_counters(8) [31:0] $end
    $var wire 32 z! WB_counters(9) [31:0] $end
    $var wire  4 N! bus_canary_WB [3:0] $end
    $var wire  1 O! clk $end
    $var wire 106 l from_MEM_latch [105:0] $end
    $var wire  1 :" from_WB_to_AGEX [0:0] $end
    $var wire 43 # from_WB_to_DE [42:0] $end
    $var wire  1 6" from_WB_to_FE [0:0] $end
    $var wire  1 ;" from_WB_to_MEM [0:0] $end
    $var wire 32 K! inst_WB [31:0] $end
    $var wire 32 M! inst_count_WB [31:0] $end
    $var wire 32 Q! last_WB_value(0) [31:0] $end
    $var wire 32 R! last_WB_value(1) [31:0] $end
    $var wire 32 [! last_WB_value(10) [31:0] $end
    $var wire 32 \! last_WB_value(11) [31:0] $end
    $var wire 32 ]! last_WB_value(12) [31:0] $end
    $var wire 32 ^! last_WB_value(13) [31:0] $end
    $var wire 32 _! last_WB_value(14) [31:0] $end
    $var wire 32 `! last_WB_value(15) [31:0] $end
    $var wire 32 a! last_WB_value(16) [31:0] $end
    $var wire 32 b! last_WB_value(17) [31:0] $end
    $var wire 32 c! last_WB_value(18) [31:0] $end
    $var wire 32 d! last_WB_value(19) [31:0] $end
    $var wire 32 S! last_WB_value(2) [31:0] $end
    $var wire 32 e! last_WB_value(20) [31:0] $end
    $var wire 32 f! last_WB_value(21) [31:0] $end
    $var wire 32 g! last_WB_value(22) [31:0] $end
    $var wire 32 h! last_WB_value(23) [31:0] $end
    $var wire 32 i! last_WB_value(24) [31:0] $end
    $var wire 32 j! last_WB_value(25) [31:0] $end
    $var wire 32 k! last_WB_value(26) [31:0] $end
    $var wire 32 l! last_WB_value(27) [31:0] $end
    $var wire 32 m! last_WB_value(28) [31:0] $end
    $var wire 32 n! last_WB_value(29) [31:0] $end
    $var wire 32 T! last_WB_value(3) [31:0] $end
    $var wire 32 o! last_WB_value(30) [31:0] $end
    $var wire 32 p! last_WB_value(31) [31:0] $end
    $var wire 32 U! last_WB_value(4) [31:0] $end
    $var wire 32 V! last_WB_value(5) [31:0] $end
    $var wire 32 W! last_WB_value(6) [31:0] $end
    $var wire 32 X! last_WB_value(7) [31:0] $end
    $var wire 32 Y! last_WB_value(8) [31:0] $end
    $var wire 32 Z! last_WB_value(9) [31:0] $end
    $var wire  6 J! op_I_WB [5:0] $end
    $var wire 32 C" regval_WB [31:0] $end
    $var wire  1 P! reset $end
    $var wire  4 D" wcsrno_WB [3:0] $end
    $var wire  1 E" wr_csr_WB $end
    $var wire  1 A" wr_reg_WB $end
    $var wire  5 B" wregno_WB [4:0] $end
   $upscope $end
  $upscope $end
 $upscope $end
$enddefinitions $end


#0
b0000000000000000000000000000000000000000000 #
0%
b00000 &
b00000000000000000000000000000000 '
b0000 (
0)
b00000000000000000000000000000000 *
b00000000000000000000000000000000 +
b00000000000000000000000000000000 ,
b00000000000000000000000000000000 -
b00000000000000000000000000000000 .
b00000000000000000000000000000000 /
b00000000000000000000000000000000 0
b00000000000000000000000000000000 1
b00000000000000000000000000000000 2
b00000000000000000000000000000000 3
b00000000000000000000000000000000 4
b00000000000000000000000000000000 5
b00000000000000000000000000000000 6
b00000000000000000000000000000000 7
b00000000000000000000000000000000 8
b00000000000000000000000000000000 9
b00000000000000000000000000000000 :
b00000000000000000000000000000000 ;
b00000000000000000000000000000000 <
b00000000000000000000000000000000 =
b00000000000000000000000000000000 >
b00000000000000000000000000000000 ?
b00000000000000000000000000000000 @
b00000000000000000000000000000000 A
b00000000000000000000000000000000 B
b00000000000000000000000000000000 C
b00000000000000000000000000000000 D
b00000000000000000000000000000000 E
b00000000000000000000000000000000 F
b00000000000000000000000000000000 G
b00000000000000000000000000000000 H
b00000000000000000000000000000000 I
b00000000000000000000000000000000 J
b00000000000000000000000000000000 K
b00000000000000000000000000000000 L
b00000000000000000000000000000000 M
b00000000000000000000000000000000 N
b00000000000000000000000000000000 O
b00000000000000000000000000000000 P
b00000000000000000000000000000000 Q
b00000000000000000000000000000000 R
b00000000000000000000000000000000 S
b00000000000000000000000000000000 T
b00000000000000000000000000000000 U
b00000000000000000000000000000000 V
b00000000000000000000000000000000 W
b00000000000000000000000000000000 X
b00000000000000000000000000000000 Y
b00000000000000000000000000000000 Z
b000000000000000000000000000000000000000000000000000000000000000000000000000000000000000000000000000000000000000000000000000000000000 [
b00000000000000000000000000000000000000000000000000000000000000000000000000000000000000000000000000000000000000000000000000000000000000000000000000000000000000000000000000000000000000000000000000000000000000000000000000000000000000000000000 `
b0000000000000000000000000000000000000000000000000000000000000000000000000000000000000000000000000000000000 h
b0000000000000000000000000000000000000000000000000000000000000000000000000000000000000000000000000000000000 l
b00000000000000000000000000000000 p
b00000000000000000000000100000000 q
b00000000000000000000000000000100 r
b000000000000000000000001000000000000000000000000000000000000000000000000000000000000000000000100000000000000000000000000000000001111 s
b00000000000000000000000000000000 x
b00000000000000000000000000000000 y
b00000000000000000000000000000000 z
b00000000000000000000000000000000 {
b00000000000000000000000000000000 |
b00000000000000000000000000000000000000000000000000000000000000000000000000000000000000000000000010010100000000000000000000000000000000000000000000000000000000000000000000000000000000000000000000000000000000000000000000000000000000000000000 }
b0000 '!
b00000000000000000000000000000000 (!
b000 )!
b0000000 *!
b0000000 +!
b100101 ,!
b0000 -!
b000 .!
b00000000000000000000000000000000 /!
b00000000000000000000000000000000 0!
b00000000000000000000000000000000 1!
b00000 2!
b0000000000000000000000000000000000000000000000000000000000000000000000000000000000000000000000000000000000 3!
b00000000000000000000000000000000 7!
b00000000000000000000000000000000 8!
b00000000000000000000000000000000 9!
b00000000000000000000000000000000 :!
b000000 ;!
b00000000000000000000000000000000 <!
b00000000000000000000000000000000 =!
b00000 >!
b00000000000000000000000000000000 ?!
0@!
b0000 A!
b000000000000000000000000000000000 B!
b000000 D!
b00000000000000000000000000000000 E!
b00000000000000000000000000000000 F!
b00000000000000000000000000000000 G!
b0000 H!
b00000000000000000000000100000000 I!
b000000 J!
b00000000000000000000000000000000 K!
b00000000000000000000000000000000 L!
b00000000000000000000000000000000 M!
b0000 N!
0O!
0P!
b00000000000000000000000000000000 Q!
b00000000000000000000000000000000 R!
b00000000000000000000000000000000 S!
b00000000000000000000000000000000 T!
b00000000000000000000000000000000 U!
b00000000000000000000000000000000 V!
b00000000000000000000000000000000 W!
b00000000000000000000000000000000 X!
b00000000000000000000000000000000 Y!
b00000000000000000000000000000000 Z!
b00000000000000000000000000000000 [!
b00000000000000000000000000000000 \!
b00000000000000000000000000000000 ]!
b00000000000000000000000000000000 ^!
b00000000000000000000000000000000 _!
b00000000000000000000000000000000 `!
b00000000000000000000000000000000 a!
b00000000000000000000000000000000 b!
b00000000000000000000000000000000 c!
b00000000000000000000000000000000 d!
b00000000000000000000000000000000 e!
b00000000000000000000000000000000 f!
b00000000000000000000000000000000 g!
b00000000000000000000000000000000 h!
b00000000000000000000000000000000 i!
b00000000000000000000000000000000 j!
b00000000000000000000000000000000 k!
b00000000000000000000000000000000 l!
b00000000000000000000000000000000 m!
b00000000000000000000000000000000 n!
b00000000000000000000000000000000 o!
b00000000000000000000000000000000 p!
b00000000000000000000000000000000 q!
b00000000000000000000000000000000 r!
b00000000000000000000000000000000 s!
b00000000000000000000000000000000 t!
b00000000000000000000000000000000 u!
b00000000000000000000000000000000 v!
b00000000000000000000000000000000 w!
b00000000000000000000000000000000 x!
b00000000000000000000000000000000 y!
b00000000000000000000000000000000 z!
b00000000000000000000000000000000 {!
b00000000000000000000000000000000 |!
b00000000000000000000000000000000 }!
b00000000000000000000000000000000 ~!
b00000000000000000000000000000000 !"
b00000000000000000000000000000000 ""
b00000000000000000000000000000000 #"
b00000000000000000000000000000000 $"
b00000000000000000000000000000000 %"
b00000000000000000000000000000000 &"
b00000000000000000000000000000000 '"
b00000000000000000000000000000000 ("
b00000000000000000000000000000000 )"
b00000000000000000000000000000000 *"
b00000000000000000000000000000000 +"
b00000000000000000000000000000000 ,"
b00000000000000000000000000000000 -"
b00000000000000000000000000000000 ."
b00000000000000000000000000000000 /"
b00000000000000000000000000000000 0"
b00000000000000000000000000000000 1"
b00000000000000000000000000000000 2"
03"
04"
05"
06"
07"
08"
09"
0:"
0;"
0<"
b00000000000000000000000000000000 ="
b00000000000000000000000000000000 >"
b00000000000000000000000000000000 ?"
0@"
0A"
b00000 B"
b00000000000000000000000000000000 C"
b0000 D"
0E"
#1
b00000000000000000000000000000001 Z
b000000000000000000000001000000000000000000000000000000000000000000000000000000000000000000000100000000000000000000000000000000001111 [
b00000000000000000000000000000000000000000000000000000000000000000000000000000000000000000000000010010100000000000000000000000000000000000000000000000000000000000000000000000000000000000000000000000000000000000000000000000000000000000000000 `
b00000000000000000000000000000100 p
b00000000000000000000000100010011 q
b00000000000000000000000000001000 r
b000000000000000000000001000100110000000000000000000000000000010000000000000000000000000000001000000000000000000000000000000000011111 s
b00000000000000000000000000000001 x
b00000000000000000000000100000000 y
b00000000000000000000000000000100 {
b00000000000000000000000100000000000000000000000000000000000000000000000000000000000000000000010010010100000000000000000000000000000000000000000000000000000000000000000000000000000000000000000000000000010000000000000000000000000000000001111 }
b1111 '!
b00010 2!
b0000000000000000000000000000000000000000000000000000000000000000100101000000000000000000000000000000000000 3!
b100101 ;!
1O!
#2
0O!
1P!
#3
b00000000000000000000000000000000 Z
b000000000000000000000000000000000000000000000000000000000000000000000000000000000000000000000000000000000000000000000000000000000000 [
b00000000000000000000000000000000000000000000000000000000000000000000000000000000000000000000000000000000000000000000000000000000000000000000000000000000000000000000000000000000000000000000000000000000000000000000000000000000000000000000000 `
b00000000000000000000001000000000 p
b00000000000100000000000110010011 q
b00000000000000000000001000000100 r
b000000000001000000000001100100110000000000000000000000100000000000000000000000000000001000000100000000000000000000000000000000011111 s
b00000000000000000000000000000000 y
b00000000000000000000000000000000 {
b00000000000000000000000000000000000000000000000000000000000000000000000000000000000000000000000010010100000000000000000000000000000000000000000000000000000000000000000000000000000000000000000000000000000000000000000000000000000000000000000 }
b0000 '!
b00000 2!
b0000000000000000000000000000000000000000000000000000000000000000000000000000000000000000000000000000000000 3!
b000000 ;!
1O!
#4
0O!
#5
1O!
#6
0O!
#7
1O!
#8
0O!
#9
1O!
#10
#11
0O!
#12
1O!
#13
0O!
#14
1O!
#15
0O!
#16
1O!
#17
0O!
#18
1O!
#19
0O!
#20
#21
1O!
#22
0O!
#23
1O!
#24
0O!
#25
1O!
#26
0O!
#27
1O!
#28
0O!
#29
1O!
#30
#31
0O!
#32
1O!
#33
0O!
#34
1O!
#35
0O!
#36
1O!
#37
0O!
#38
1O!
#39
0O!
#40
#41
1O!
#42
0O!
#43
1O!
#44
0O!
#45
1O!
#46
0O!
#47
1O!
#48
0O!
#49
1O!
#50
#51
0O!
#52
1O!
#53
0O!
#54
1O!
#55
0O!
#56
1O!
#57
0O!
#58
1O!
#59
0O!
#60
#61
1O!
#62
0O!
#63
1O!
#64
0O!
#65
1O!
#66
0O!
#67
1O!
#68
0O!
#69
1O!
#70
#71
0O!
#72
1O!
#73
0O!
#74
1O!
#75
0O!
#76
1O!
#77
0O!
#78
1O!
#79
0O!
#80
#81
1O!
#82
0O!
#83
1O!
#84
0O!
#85
1O!
#86
0O!
#87
1O!
#88
0O!
#89
1O!
#90
#91
0O!
#92
1O!
#93
0O!
#94
1O!
#95
0O!
#96
1O!
#97
0O!
#98
1O!
#99
0O!
#100
0P!
#101
b00000000000000000000000000000001 Z
b000000000001000000000001100100110000000000000000000000100000000000000000000000000000001000000100000000000000000000000000000000011111 [
b00000000000000000000000000000000000000000000000000000000000000000000000000000000000000000000000010010100000000000000000000000000000000000000000000000000000000000000000000000000000000000000000000000000000000000000000000000000000000000000000 `
b00000000000000000000001000000100 p
b00000000000000000000000000000000 q
b00000000000000000000001000001000 r
b000000000000000000000000000000000000000000000000000000100000010000000000000000000000001000001000000000000000000000000000000000101111 s
b00000000000000000000000000000010 x
b00000000000100000000000110010011 y
b00000000000000000000001000000000 z
b00000000000000000000001000000100 {
b00000000000000000000000000000001 |
b00000000000100000000000110010011000000000000000000000010000000000000000000000000000000100000010000110000000000000000000000000000000001000000000000000000000000000000000000000000000000000000000000000000011000000000000000000000000000000011111 }
b1111 '!
b0010011 +!
b001100 ,!
b0010 -!
b001 .!
b00000000000000000000000000000001 /!
b00011 2!
b0000000000000000000000000000000000000000000000000000000000000000100101000000000000000000000000000000000000 3!
b100101 ;!
1O!
#102
0O!
#103
b00000000000000000000000000000010 Z
b000000000000000000000000000000000000000000000000000000100000010000000000000000000000001000001000000000000000000000000000000000101111 [
b00000000000100000000000110010011000000000000000000000010000000000000000000000000000000100000010000110000000000000000000000000000000001000000000000000000000000000000000000000000000000000000000000000000011000000000000000000000000000000011111 `
b0000000000000000000000000000000000000000000000000000000000000000100101000000000000000000000000000000000000 h
b00000000000000000000001000001000 p
b00000000000000000000001000001100 r
b000000000000000000000000000000000000000000000000000000100000100000000000000000000000001000001100000000000000000000000000000000111111 s
b00000000000000000000000000000011 x
b00000000000000000000000000000000 y
b00000000000000000000001000000100 z
b00000000000000000000001000001000 {
b00000000000000000000000000000010 |
b00000000000000000000000000000000000000000000000000000010000001000000000000000000000000100000100010010100000000000000000000000000000010000000000000000000000000000000000000000000000000000000000000000000000000000000000000000000000000000001111 }
b0000000 +!
b100101 ,!
b00000000000000000000000000000000 /!
b00000 2!
b0000000000010000000000011001001100000000000000000000001000000000001100000000000000000000000000000000011111 3!
b00000000000100000000000110010011 7!
b00000000000000000000001000000000 8!
b00000000000000000000000000000001 9!
b00000000000000000000001000000100 :!
b001100 ;!
b00011 >!
b00000000000000000000000000000001 ?!
b1111 A!
b000000000000000000000000000000001 B!
b100101 D!
1O!
#104
0O!
#105
b00000000000000000000000000000011 Z
b000000000000000000000000000000000000000000000000000000100000100000000000000000000000001000001100000000000000000000000000000000111111 [
b00000000000000000000000000000000000000000000000000000010000001000000000000000000000000100000100010010100000000000000000000000000000010000000000000000000000000000000000000000000000000000000000000000000000000000000000000000000000000000001111 `
b0000000000010000000000011001001100000000000000000000001000000000001100000000000000000000000000000000011111 h
b0000000000000000000000000000000000000000000000000000000000000000100101000000000000000000000000000000000000 l
b00000000000000000000001000001100 p
b00000000000000000000001000010000 r
b000000000000000000000000000000000000000000000000000000100000110000000000000000000000001000010000000000000000000000000000000001001111 s
b00000000000000000000000000000100 x
b00000000000000000000001000001000 z
b00000000000000000000001000001100 {
b00000000000000000000000000000011 |
b00000000000000000000000000000000000000000000000000000010000010000000000000000000000000100000110010010100000000000000000000000000000011000000000000000000000000000000000000000000000000000000000000000000000000000000000000000000000000000001111 }
b0000000000000000000000000000000000000000000000000000001000000100100101000000000000000000000000000000101111 3!
b00000000000000000000000000000000 7!
b00000000000000000000001000000100 8!
b00000000000000000000000000000010 9!
b00000000000000000000001000001000 :!
b100101 ;!
b00000 >!
b00000000000000000000000000000000 ?!
b001100 D!
b00000000000000000000000000000001 E!
b00000000000100000000000110010011 F!
b00000000000000000000001000000000 G!
b1111 H!
b100101 J!
1O!
#106
0O!
#107
b00000000000000000000000000000100 Z
b000000000000000000000000000000000000000000000000000000100000110000000000000000000000001000010000000000000000000000000000000001001111 [
b00000000000000000000000000000000000000000000000000000010000010000000000000000000000000100000110010010100000000000000000000000000000011000000000000000000000000000000000000000000000000000000000000000000000000000000000000000000000000000001111 `
b0000000000000000000000000000000000000000000000000000001000000100100101000000000000000000000000000000101111 h
b0000000000010000000000011001001100000000000000000000001000000000001100000000000000000000000000000000011111 l
b00000000000000000000001000010000 p
b00000000000000000000001000010100 r
b000000000000000000000000000000000000000000000000000000100001000000000000000000000000001000010100000000000000000000000000000001011111 s
b00000000000000000000000000000101 x
b00000000000000000000001000001100 z
b00000000000000000000001000010000 {
b00000000000000000000000000000100 |
b00000000000000000000000000000000000000000000000000000010000011000000000000000000000000100001000010010100000000000000000000000000000100000000000000000000000000000000000000000000000000000000000000000000000000000000000000000000000000000001111 }
b0000000000000000000000000000000000000000000000000000001000001000100101000000000000000000000000000000111111 3!
b00000000000000000000001000001000 8!
b00000000000000000000000000000011 9!
b00000000000000000000001000001100 :!
b100101 D!
b00000000000000000000000000000010 E!
b00000000000000000000000000000000 F!
b00000000000000000000001000000100 G!
b001100 J!
b00000000000100000000000110010011 K!
b00000000000000000000001000000000 L!
b00000000000000000000000000000001 M!
b1111 N!
1O!
b00000000000000000000000000100101 w!
#108
0O!
#109
b00000000000000000000000000000101 Z
b000000000000000000000000000000000000000000000000000000100001000000000000000000000000001000010100000000000000000000000000000001011111 [
b00000000000000000000000000000000000000000000000000000010000011000000000000000000000000100001000010010100000000000000000000000000000100000000000000000000000000000000000000000000000000000000000000000000000000000000000000000000000000000001111 `
b0000000000000000000000000000000000000000000000000000001000001000100101000000000000000000000000000000111111 h
b0000000000000000000000000000000000000000000000000000001000000100100101000000000000000000000000000000101111 l
b00000000000000000000001000010100 p
b00000000000000000000001000011000 r
b000000000000000000000000000000000000000000000000000000100001010000000000000000000000001000011000000000000000000000000000000001101111 s
b00000000000000000000000000000110 x
b00000000000000000000001000010000 z
b00000000000000000000001000010100 {
b00000000000000000000000000000101 |
b00000000000000000000000000000000000000000000000000000010000100000000000000000000000000100001010010010100000000000000000000000000000101000000000000000000000000000000000000000000000000000000000000000000000000000000000000000000000000000001111 }
b0000000000000000000000000000000000000000000000000000001000001100100101000000000000000000000000000001001111 3!
b00000000000000000000001000001100 8!
b00000000000000000000000000000100 9!
b00000000000000000000001000010000 :!
b00000000000000000000000000000011 E!
b00000000000000000000001000001000 G!
b100101 J!
b00000000000000000000000000000000 K!
b00000000000000000000001000000100 L!
b00000000000000000000000000000010 M!
1O!
b00000000000000000000001000000000 r!
b00000000000100000000000110010011 s!
b00000000000000000000000000000001 v!
b00000000000000000000000000001100 w!
#110
#111
0O!
#112
b00000000000000000000000000000110 Z
b000000000000000000000000000000000000000000000000000000100001010000000000000000000000001000011000000000000000000000000000000001101111 [
b00000000000000000000000000000000000000000000000000000010000100000000000000000000000000100001010010010100000000000000000000000000000101000000000000000000000000000000000000000000000000000000000000000000000000000000000000000000000000000001111 `
b0000000000000000000000000000000000000000000000000000001000001100100101000000000000000000000000000001001111 h
b0000000000000000000000000000000000000000000000000000001000001000100101000000000000000000000000000000111111 l
b00000000000000000000001000011000 p
b00000000000000000000001000011100 r
b000000000000000000000000000000000000000000000000000000100001100000000000000000000000001000011100000000000000000000000000000001111111 s
b00000000000000000000000000000111 x
b00000000000000000000001000010100 z
b00000000000000000000001000011000 {
b00000000000000000000000000000110 |
b00000000000000000000000000000000000000000000000000000010000101000000000000000000000000100001100010010100000000000000000000000000000110000000000000000000000000000000000000000000000000000000000000000000000000000000000000000000000000000001111 }
b0000000000000000000000000000000000000000000000000000001000010000100101000000000000000000000000000001011111 3!
b00000000000000000000001000010000 8!
b00000000000000000000000000000101 9!
b00000000000000000000001000010100 :!
b00000000000000000000000000000100 E!
b00000000000000000000001000001100 G!
b00000000000000000000001000001000 L!
b00000000000000000000000000000011 M!
1O!
b00000000000000000000001000000100 r!
b00000000000000000000000000000000 s!
b00000000000000000000000000000010 v!
b00000000000000000000000000100101 w!
#113
0O!
