Fall_2022/proj2/trace.vcd
$version Generated by VerilatedVcd $end
$date Sun Sep 18 11:44:14 2022
 $end
$timescale   1ps $end

 $scope module TOP $end
  $var wire  1 E! clk $end
  $var wire  1 F! reset $end
  $scope module pipeline $end
   $var wire 106 f AGEX_latch_out [105:0] $end
   $var wire 170 ` DE_latch_out [169:0] $end
   $var wire 132 [ FE_latch_out [131:0] $end
   $var wire 106 j MEM_latch_out [105:0] $end
   $var wire  1 E! clk $end
   $var wire 32 Z cycle_count [31:0] $end
   $var wire  1 -" from_AGEX_to_DE [0:0] $end
   $var wire  1 *" from_AGEX_to_FE [0:0] $end
   $var wire  1 )" from_DE_to_FE [0:0] $end
   $var wire  1 /" from_MEM_to_AGEX [0:0] $end
   $var wire  1 ." from_MEM_to_DE [0:0] $end
   $var wire  1 +" from_MEM_to_FE [0:0] $end
   $var wire  1 0" from_WB_to_AGEX [0:0] $end
   $var wire 43 # from_WB_to_DE [42:0] $end
   $var wire  1 ," from_WB_to_FE [0:0] $end
   $var wire  1 1" from_WB_to_MEM [0:0] $end
   $var wire  1 F! reset $end
   $scope module my_AGEX_stage $end
    $var wire 106 f AGEX_latch [105:0] $end
    $var wire 106 .! AGEX_latch_contents [105:0] $end
    $var wire 106 f AGEX_latch_out [105:0] $end
    $var wire 32 3! PC_AGEX [31:0] $end
    $var wire 32 7! RR_arith_result_AGEX [31:0] $end
    $var wire  1 8! br_cond_AGEX $end
    $var wire  4 9! bus_canary_AGEX [3:0] $end
    $var wire  1 E! clk $end
    $var wire  1 -" from_AGEX_to_DE [0:0] $end
    $var wire  1 *" from_AGEX_to_FE [0:0] $end
    $var wire 170 ` from_DE_latch [169:0] $end
    $var wire  1 /" from_MEM_to_AGEX [0:0] $end
    $var wire  1 0" from_WB_to_AGEX [0:0] $end
    $var wire 32 2! inst_AGEX [31:0] $end
    $var wire 32 4! inst_count_AGEX [31:0] $end
    $var wire  6 6! op_I_AGEX [5:0] $end
    $var wire 32 5! pcplus_AGEX [31:0] $end
    $var wire  1 F! reset $end
   $upscope $end
   $scope module my_DE_stage $end
    $var wire 170 ` DE_latch [169:0] $end
    $var wire 170 { DE_latch_contents [169:0] $end
    $var wire 170 ` DE_latch_out [169:0] $end
    $var wire  3 %! F3_DE [2:0] $end
    $var wire  7 &! F7_DE [6:0] $end
    $var wire 32 x PC_DE [31:0] $end
    $var wire 32 $! RR_arith_result_DE [31:0] $end
    $var wire  4 #! bus_canary_DE [3:0] $end
    $var wire  1 E! clk $end
    $var wire 32 J csr_regs(0) [31:0] $end
    $var wire 32 K csr_regs(1) [31:0] $end
    $var wire 32 T csr_regs(10) [31:0] $end
    $var wire 32 U csr_regs(11) [31:0] $end
    $var wire 32 V csr_regs(12) [31:0] $end
    $var wire 32 W csr_regs(13) [31:0] $end
    $var wire 32 X csr_regs(14) [31:0] $end
    $var wire 32 Y csr_regs(15) [31:0] $end
    $var wire 32 L csr_regs(2) [31:0] $end
    $var wire 32 M csr_regs(3) [31:0] $end
    $var wire 32 N csr_regs(4) [31:0] $end
    $var wire 32 O csr_regs(5) [31:0] $end
    $var wire 32 P csr_regs(6) [31:0] $end
    $var wire 32 Q csr_regs(7) [31:0] $end
    $var wire 32 R csr_regs(8) [31:0] $end
    $var wire 32 S csr_regs(9) [31:0] $end
    $var wire  1 -" from_AGEX_to_DE [0:0] $end
    $var wire  1 )" from_DE_to_FE [0:0] $end
    $var wire 132 [ from_FE_latch [131:0] $end
    $var wire  1 ." from_MEM_to_DE [0:0] $end
    $var wire 43 # from_WB_to_DE [42:0] $end
    $var wire 32 w inst_DE [31:0] $end
    $var wire 32 z inst_count_DE [31:0] $end
    $var wire  7 '! op_DE [6:0] $end
    $var wire  6 (! op_I_DE [5:0] $end
    $var wire 32 y pcplus_DE [31:0] $end
    $var wire  1 )" pipeline_stall_DE $end
    $var wire 32 * regs(0) [31:0] $end
    $var wire 32 + regs(1) [31:0] $end
    $var wire 32 4 regs(10) [31:0] $end
    $var wire 32 5 regs(11) [31:0] $end
    $var wire 32 6 regs(12) [31:0] $end
    $var wire 32 7 regs(13) [31:0] $end
    $var wire 32 8 regs(14) [31:0] $end
    $var wire 32 9 regs(15) [31:0] $end
    $var wire 32 : regs(16) [31:0] $end
    $var wire 32 ; regs(17) [31:0] $end
    $var wire 32 < regs(18) [31:0] $end
    $var wire 32 = regs(19) [31:0] $end
    $var wire 32 , regs(2) [31:0] $end
    $var wire 32 > regs(20) [31:0] $end
    $var wire 32 ? regs(21) [31:0] $end
    $var wire 32 @ regs(22) [31:0] $end
    $var wire 32 A regs(23) [31:0] $end
    $var wire 32 B regs(24) [31:0] $end
    $var wire 32 C regs(25) [31:0] $end
    $var wire 32 D regs(26) [31:0] $end
    $var wire 32 E regs(27) [31:0] $end
    $var wire 32 F regs(28) [31:0] $end
    $var wire 32 G regs(29) [31:0] $end
    $var wire 32 - regs(3) [31:0] $end
    $var wire 32 H regs(30) [31:0] $end
    $var wire 32 I regs(31) [31:0] $end
    $var wire 32 . regs(4) [31:0] $end
    $var wire 32 / regs(5) [31:0] $end
    $var wire 32 0 regs(6) [31:0] $end
    $var wire 32 1 regs(7) [31:0] $end
    $var wire 32 2 regs(8) [31:0] $end
    $var wire 32 3 regs(9) [31:0] $end
    $var wire 32 ' regval_WB [31:0] $end
    $var wire  1 F! reset $end
    $var wire  5 ,! rs1_DE [4:0] $end
    $var wire  5 -! rs2_DE [4:0] $end
    $var wire 32 +! sxt_imm_DE [31:0] $end
    $var wire  4 )! type_I_DE [3:0] $end
    $var wire  3 *! type_immediate_DE [2:0] $end
    $var wire  4 ( wcsrno_WB [3:0] $end
    $var wire  1 ) wr_csr_WB $end
    $var wire  1 % wr_reg_WB $end
    $var wire  5 & wregno_WB [4:0] $end
   $upscope $end
   $scope module my_FE_stage $end
    $var wire 132 [ FE_latch [131:0] $end
    $var wire 132 q FE_latch_contents [131:0] $end
    $var wire 132 [ FE_latch_out [131:0] $end
    $var wire 32 n PC_FE_latch [31:0] $end
    $var wire  1 E! clk $end
    $var wire  1 *" from_AGEX_to_FE [0:0] $end
    $var wire  1 )" from_DE_to_FE [0:0] $end
    $var wire  1 +" from_MEM_to_FE [0:0] $end
    $var wire  1 ," from_WB_to_FE [0:0] $end
    $var wire 32 o inst_FE [31:0] $end
    $var wire 32 3" inst_count_AGEX [31:0] $end
    $var wire 32 v inst_count_FE [31:0] $end
    $var wire 32 p pcplus_FE [31:0] $end
    $var wire  1 F! reset $end
    $var wire  1 2" stall_pipe_FE $end
   $upscope $end
   $scope module my_MEM_stage $end
    $var wire 106 j MEM_latch [105:0] $end
    $var wire 106 f MEM_latch_contents [105:0] $end
    $var wire 106 j MEM_latch_out [105:0] $end
    $var wire 32 =! PC_MEM [31:0] $end
    $var wire  4 >! bus_canary_MEM [3:0] $end
    $var wire  1 E! clk $end
    $var wire 106 f from_AGEX_latch [105:0] $end
    $var wire  1 /" from_MEM_to_AGEX [0:0] $end
    $var wire  1 ." from_MEM_to_DE [0:0] $end
    $var wire  1 +" from_MEM_to_FE [0:0] $end
    $var wire  1 1" from_WB_to_MEM [0:0] $end
    $var wire 32 <! inst_MEM [31:0] $end
    $var wire 32 ;! inst_count_MEM [31:0] $end
    $var wire 32 4" memaddr_MEM [31:0] $end
    $var wire  6 :! op_I_MEM [5:0] $end
    $var wire 32 ?! rd_val_MEM [31:0] $end
    $var wire  1 F! reset $end
    $var wire  1 6" wr_mem_MEM $end
    $var wire 32 5" wr_val_MEM [31:0] $end
   $upscope $end
   $scope module my_WB_stage $end
    $var wire 32 B! PC_WB [31:0] $end
    $var wire 32 g! WB_counters(0) [31:0] $end
    $var wire 32 h! WB_counters(1) [31:0] $end
    $var wire 32 q! WB_counters(10) [31:0] $end
    $var wire 32 r! WB_counters(11) [31:0] $end
    $var wire 32 s! WB_counters(12) [31:0] $end
    $var wire 32 t! WB_counters(13) [31:0] $end
    $var wire 32 u! WB_counters(14) [31:0] $end
    $var wire 32 v! WB_counters(15) [31:0] $end
    $var wire 32 w! WB_counters(16) [31:0] $end
    $var wire 32 x! WB_counters(17) [31:0] $end
    $var wire 32 y! WB_counters(18) [31:0] $end
    $var wire 32 z! WB_counters(19) [31:0] $end
    $var wire 32 i! WB_counters(2) [31:0] $end
    $var wire 32 {! WB_counters(20) [31:0] $end
    $var wire 32 |! WB_counters(21) [31:0] $end
    $var wire 32 }! WB_counters(22) [31:0] $end
    $var wire 32 ~! WB_counters(23) [31:0] $end
    $var wire 32 !" WB_counters(24) [31:0] $end
    $var wire 32 "" WB_counters(25) [31:0] $end
    $var wire 32 #" WB_counters(26) [31:0] $end
    $var wire 32 $" WB_counters(27) [31:0] $end
    $var wire 32 %" WB_counters(28) [31:0] $end
    $var wire 32 &" WB_counters(29) [31:0] $end
    $var wire 32 j! WB_counters(3) [31:0] $end
    $var wire 32 '" WB_counters(30) [31:0] $end
    $var wire 32 (" WB_counters(31) [31:0] $end
    $var wire 32 k! WB_counters(4) [31:0] $end
    $var wire 32 l! WB_counters(5) [31:0] $end
    $var wire 32 m! WB_counters(6) [31:0] $end
    $var wire 32 n! WB_counters(7) [31:0] $end
    $var wire 32 o! WB_counters(8) [31:0] $end
    $var wire 32 p! WB_counters(9) [31:0] $end
    $var wire  4 D! bus_canary_WB [3:0] $end
    $var wire  1 E! clk $end
    $var wire 106 j from_MEM_latch [105:0] $end
    $var wire  1 0" from_WB_to_AGEX [0:0] $end
    $var wire 43 # from_WB_to_DE [42:0] $end
    $var wire  1 ," from_WB_to_FE [0:0] $end
    $var wire  1 1" from_WB_to_MEM [0:0] $end
    $var wire 32 A! inst_WB [31:0] $end
    $var wire 32 C! inst_count_WB [31:0] $end
    $var wire 32 G! last_WB_value(0) [31:0] $end
    $var wire 32 H! last_WB_value(1) [31:0] $end
    $var wire 32 Q! last_WB_value(10) [31:0] $end
    $var wire 32 R! last_WB_value(11) [31:0] $end
    $var wire 32 S! last_WB_value(12) [31:0] $end
    $var wire 32 T! last_WB_value(13) [31:0] $end
    $var wire 32 U! last_WB_value(14) [31:0] $end
    $var wire 32 V! last_WB_value(15) [31:0] $end
    $var wire 32 W! last_WB_value(16) [31:0] $end
    $var wire 32 X! last_WB_value(17) [31:0] $end
    $var wire 32 Y! last_WB_value(18) [31:0] $end
    $var wire 32 Z! last_WB_value(19) [31:0] $end
    $var wire 32 I! last_WB_value(2) [31:0] $end
    $var wire 32 [! last_WB_value(20) [31:0] $end
    $var wire 32 \! last_WB_value(21) [31:0] $end
    $var wire 32 ]! last_WB_value(22) [31:0] $end
    $var wire 32 ^! last_WB_value(23) [31:0] $end
    $var wire 32 _! last_WB_value(24) [31:0] $end
    $var wire 32 `! last_WB_value(25) [31:0] $end
    $var wire 32 a! last_WB_value(26) [31:0] $end
    $var wire 32 b! last_WB_value(27) [31:0] $end
    $var wire 32 c! last_WB_value(28) [31:0] $end
    $var wire 32 d! last_WB_value(29) [31:0] $end
    $var wire 32 J! last_WB_value(3) [31:0] $end
    $var wire 32 e! last_WB_value(30) [31:0] $end
    $var wire 32 f! last_WB_value(31) [31:0] $end
    $var wire 32 K! last_WB_value(4) [31:0] $end
    $var wire 32 L! last_WB_value(5) [31:0] $end
    $var wire 32 M! last_WB_value(6) [31:0] $end
    $var wire 32 N! last_WB_value(7) [31:0] $end
    $var wire 32 O! last_WB_value(8) [31:0] $end
    $var wire 32 P! last_WB_value(9) [31:0] $end
    $var wire  6 @! op_I_WB [5:0] $end
    $var wire 32 9" regval_WB [31:0] $end
    $var wire  1 F! reset $end
    $var wire  4 :" wcsrno_WB [3:0] $end
    $var wire  1 ;" wr_csr_WB $end
    $var wire  1 7" wr_reg_WB $end
    $var wire  5 8" wregno_WB [4:0] $end
   $upscope $end
  $upscope $end
 $upscope $end
$enddefinitions $end


#0
b0000000000000000000000000000000000000000000 #
0%
b00000 &
b00000000000000000000000000000000 '
b0000 (
0)
b00000000000000000000000000000000 *
b00000000000000000000000000000000 +
b00000000000000000000000000000000 ,
b00000000000000000000000000000000 -
b00000000000000000000000000000000 .
b00000000000000000000000000000000 /
b00000000000000000000000000000000 0
b00000000000000000000000000000000 1
b00000000000000000000000000000000 2
b00000000000000000000000000000000 3
b00000000000000000000000000000000 4
b00000000000000000000000000000000 5
b00000000000000000000000000000000 6
b00000000000000000000000000000000 7
b00000000000000000000000000000000 8
b00000000000000000000000000000000 9
b00000000000000000000000000000000 :
b00000000000000000000000000000000 ;
b00000000000000000000000000000000 <
b00000000000000000000000000000000 =
b00000000000000000000000000000000 >
b00000000000000000000000000000000 ?
b00000000000000000000000000000000 @
b00000000000000000000000000000000 A
b00000000000000000000000000000000 B
b00000000000000000000000000000000 C
b00000000000000000000000000000000 D
b00000000000000000000000000000000 E
b00000000000000000000000000000000 F
b00000000000000000000000000000000 G
b00000000000000000000000000000000 H
b00000000000000000000000000000000 I
b00000000000000000000000000000000 J
b00000000000000000000000000000000 K
b00000000000000000000000000000000 L
b00000000000000000000000000000000 M
b00000000000000000000000000000000 N
b00000000000000000000000000000000 O
b00000000000000000000000000000000 P
b00000000000000000000000000000000 Q
b00000000000000000000000000000000 R
b00000000000000000000000000000000 S
b00000000000000000000000000000000 T
b00000000000000000000000000000000 U
b00000000000000000000000000000000 V
b00000000000000000000000000000000 W
b00000000000000000000000000000000 X
b00000000000000000000000000000000 Y
b00000000000000000000000000000000 Z
b000000000000000000000000000000000000000000000000000000000000000000000000000000000000000000000000000000000000000000000000000000000000 [
b00000000000000000000000000000000000000000000000000000000000000000000000000000000000000000000000000000000000000000000000000000000000000000000000000000000000000000000000000 `
b0000000000000000000000000000000000000000000000000000000000000000000000000000000000000000000000000000000000 f
b0000000000000000000000000000000000000000000000000000000000000000000000000000000000000000000000000000000000 j
b00000000000000000000000000000000 n
b00000000000000000000000100000000 o
b00000000000000000000000000000100 p
b000000000000000000000001000000000000000000000000000000000000000000000000000000000000000000000100000000000000000000000000000000001111 q
b00000000000000000000000000000000 v
b00000000000000000000000000000000 w
b00000000000000000000000000000000 x
b00000000000000000000000000000000 y
b00000000000000000000000000000000 z
b00000000000000000000000000000000000000000000000000000000000000000000000000000000000000000000000010010100000000000000000000000000000000000000000000000000000000000000000000 {
b0000 #!
b00000000000000000000000000000000 $!
b000 %!
b0000000 &!
b0000000 '!
b100101 (!
b0000 )!
b000 *!
b00000000000000000000000000000000 +!
b00000 ,!
b00000 -!
b0000000000000000000000000000000000000000000000000000000000000000000000000000000000000000000000000000000000 .!
b00000000000000000000000000000000 2!
b00000000000000000000000000000000 3!
b00000000000000000000000000000000 4!
b00000000000000000000000000000000 5!
b000000 6!
b00000000000000000000000000000000 7!
08!
b0000 9!
b000000 :!
b00000000000000000000000000000000 ;!
b00000000000000000000000000000000 <!
b00000000000000000000000000000000 =!
b0000 >!
b00000000000000000000000100000000 ?!
b000000 @!
b00000000000000000000000000000000 A!
b00000000000000000000000000000000 B!
b00000000000000000000000000000000 C!
b0000 D!
0E!
0F!
b00000000000000000000000000000000 G!
b00000000000000000000000000000000 H!
b00000000000000000000000000000000 I!
b00000000000000000000000000000000 J!
b00000000000000000000000000000000 K!
b00000000000000000000000000000000 L!
b00000000000000000000000000000000 M!
b00000000000000000000000000000000 N!
b00000000000000000000000000000000 O!
b00000000000000000000000000000000 P!
b00000000000000000000000000000000 Q!
b00000000000000000000000000000000 R!
b00000000000000000000000000000000 S!
b00000000000000000000000000000000 T!
b00000000000000000000000000000000 U!
b00000000000000000000000000000000 V!
b00000000000000000000000000000000 W!
b00000000000000000000000000000000 X!
b00000000000000000000000000000000 Y!
b00000000000000000000000000000000 Z!
b00000000000000000000000000000000 [!
b00000000000000000000000000000000 \!
b00000000000000000000000000000000 ]!
b00000000000000000000000000000000 ^!
b00000000000000000000000000000000 _!
b00000000000000000000000000000000 `!
b00000000000000000000000000000000 a!
b00000000000000000000000000000000 b!
b00000000000000000000000000000000 c!
b00000000000000000000000000000000 d!
b00000000000000000000000000000000 e!
b00000000000000000000000000000000 f!
b00000000000000000000000000000000 g!
b00000000000000000000000000000000 h!
b00000000000000000000000000000000 i!
b00000000000000000000000000000000 j!
b00000000000000000000000000000000 k!
b00000000000000000000000000000000 l!
b00000000000000000000000000000000 m!
b00000000000000000000000000000000 n!
b00000000000000000000000000000000 o!
b00000000000000000000000000000000 p!
b00000000000000000000000000000000 q!
b00000000000000000000000000000000 r!
b00000000000000000000000000000000 s!
b00000000000000000000000000000000 t!
b00000000000000000000000000000000 u!
b00000000000000000000000000000000 v!
b00000000000000000000000000000000 w!
b00000000000000000000000000000000 x!
b00000000000000000000000000000000 y!
b00000000000000000000000000000000 z!
b00000000000000000000000000000000 {!
b00000000000000000000000000000000 |!
b00000000000000000000000000000000 }!
b00000000000000000000000000000000 ~!
b00000000000000000000000000000000 !"
b00000000000000000000000000000000 ""
b00000000000000000000000000000000 #"
b00000000000000000000000000000000 $"
b00000000000000000000000000000000 %"
b00000000000000000000000000000000 &"
b00000000000000000000000000000000 '"
b00000000000000000000000000000000 ("
0)"
0*"
0+"
0,"
0-"
0."
0/"
00"
01"
12"
b00000000000000000000000000000000 3"
b00000000000000000000000000000000 4"
b00000000000000000000000000000000 5"
06"
07"
b00000 8"
b00000000000000000000000000000000 9"
b0000 :"
0;"
#1
b00000000000000000000000000000001 Z
b00000000000000000000000000000000000000000000000000000000000000000000000000000000000000000000000010010100000000000000000000000000000000000000000000000000000000000000000000 `
b0000000000000000000000000000000000000000000000000000000000000000100101000000000000000000000000000000000000 .!
b100101 6!
1E!
#2
0E!
1F!
#3
b00000000000000000000000000000000 Z
b00000000000000000000000000000000000000000000000000000000000000000000000000000000000000000000000000000000000000000000000000000000000000000000000000000000000000000000000000 `
b00000000000000000000001000000000 n
b00000000000100000000000110010011 o
b00000000000000000000001000000100 p
b000000000001000000000001100100110000000000000000000000100000000000000000000000000000001000000100000000000000000000000000000000011111 q
b00000000000000000000000000000001 v
b0000000000000000000000000000000000000000000000000000000000000000000000000000000000000000000000000000000000 .!
b000000 6!
1E!
#4
0E!
#5
1E!
#6
0E!
#7
1E!
#8
0E!
#9
1E!
#10
#11
0E!
#12
1E!
#13
0E!
#14
1E!
#15
0E!
#16
1E!
#17
0E!
#18
1E!
#19
0E!
#20
#21
1E!
#22
0E!
#23
1E!
#24
0E!
#25
1E!
#26
0E!
#27
1E!
#28
0E!
#29
1E!
#30
#31
0E!
#32
1E!
#33
0E!
#34
1E!
#35
0E!
#36
1E!
#37
0E!
#38
1E!
#39
0E!
#40
#41
1E!
#42
0E!
#43
1E!
#44
0E!
#45
1E!
#46
0E!
#47
1E!
#48
0E!
#49
1E!
#50
#51
0E!
#52
1E!
#53
0E!
#54
1E!
#55
0E!
#56
1E!
#57
0E!
#58
1E!
#59
0E!
#60
#61
1E!
#62
0E!
#63
1E!
#64
0E!
#65
1E!
#66
0E!
#67
1E!
#68
0E!
#69
1E!
#70
#71
0E!
#72
1E!
#73
0E!
#74
1E!
#75
0E!
#76
1E!
#77
0E!
#78
1E!
#79
0E!
#80
#81
1E!
#82
0E!
#83
1E!
#84
0E!
#85
1E!
#86
0E!
#87
1E!
#88
0E!
#89
1E!
#90
#91
0E!
#92
1E!
#93
0E!
#94
1E!
#95
0E!
#96
1E!
#97
0E!
#98
1E!
#99
0E!
#100
0F!
#101
b00000000000000000000000000000001 Z
b00000000000000000000000000000000000000000000000000000000000000000000000000000000000000000000000010010100000000000000000000000000000000000000000000000000000000000000000000 `
b0000000000000000000000000000000000000000000000000000000000000000100101000000000000000000000000000000000000 .!
b100101 6!
1E!
#102
0E!
#103
b00000000000000000000000000000010 Z
b0000000000000000000000000000000000000000000000000000000000000000100101000000000000000000000000000000000000 f
b100101 :!
1E!
#104
0E!
#105
b00000000000000000000000000000011 Z
b0000000000000000000000000000000000000000000000000000000000000000100101000000000000000000000000000000000000 j
b100101 @!
1E!
#106
0E!
#107
b00000000000000000000000000000100 Z
1E!
b00000000000000000000000000100101 m!
#108
0E!
#109
b00000000000000000000000000000101 Z
1E!
#110
#111
0E!
#112
b00000000000000000000000000000110 Z
1E!
#113
0E!
#114
b00000000000000000000000000000111 Z
1E!
#115
0E!
#116
b00000000000000000000000000001000 Z
1E!
#117
0E!
#118
b00000000000000000000000000001001 Z
1E!
#119
0E!
#120
#121
b00000000000000000000000000001010 Z
1E!
#122
0E!
#123
b00000000000000000000000000001011 Z
1E!
#124
0E!
#125
b00000000000000000000000000001100 Z
1E!
#126
0E!
#127
b00000000000000000000000000001101 Z
1E!
#128
0E!
#129
b00000000000000000000000000001110 Z
1E!
#130
#131
0E!
#132
b00000000000000000000000000001111 Z
1E!
#133
0E!
#134
b00000000000000000000000000010000 Z
1E!
#135
0E!
#136
b00000000000000000000000000010001 Z
1E!
#137
0E!
#138
b00000000000000000000000000010010 Z
1E!
#139
0E!
#140
#141
b00000000000000000000000000010011 Z
1E!
#142
0E!
#143
b00000000000000000000000000010100 Z
1E!
#144
0E!
#145
b00000000000000000000000000010101 Z
1E!
#146
0E!
#147
b00000000000000000000000000010110 Z
1E!
#148
0E!
#149
b00000000000000000000000000010111 Z
1E!
#150
#151
0E!
#152
b00000000000000000000000000011000 Z
1E!
#153
0E!
#154
b00000000000000000000000000011001 Z
1E!
#155
0E!
#156
b00000000000000000000000000011010 Z
1E!
#157
0E!
#158
b00000000000000000000000000011011 Z
1E!
#159
0E!
#160
#161
b00000000000000000000000000011100 Z
1E!
#162
0E!
#163
b00000000000000000000000000011101 Z
1E!
#164
0E!
#165
b00000000000000000000000000011110 Z
1E!
#166
0E!
#167
b00000000000000000000000000011111 Z
1E!
#168
0E!
#169
b00000000000000000000000000100000 Z
1E!
#170
#171
0E!
#172
b00000000000000000000000000100001 Z
1E!
#173
0E!
#174
b00000000000000000000000000100010 Z
1E!
#175
0E!
#176
b00000000000000000000000000100011 Z
1E!
#177
0E!
#178
b00000000000000000000000000100100 Z
1E!
#179
0E!
#180
#181
b00000000000000000000000000100101 Z
1E!
#182
0E!
#183
b00000000000000000000000000100110 Z
1E!
#184
0E!
#185
b00000000000000000000000000100111 Z
1E!
#186
0E!
#187
b00000000000000000000000000101000 Z
1E!
#188
0E!
#189
b00000000000000000000000000101001 Z
1E!
#190
#191
0E!
#192
b00000000000000000000000000101010 Z
1E!
#193
0E!
#194
b00000000000000000000000000101011 Z
1E!
#195
0E!
#196
b00000000000000000000000000101100 Z
1E!
#197
0E!
#198
b00000000000000000000000000101101 Z
1E!
#199
0E!
#200
#201
b00000000000000000000000000101110 Z
1E!
#202
0E!
#203
b00000000000000000000000000101111 Z
1E!
#204
0E!
#205
b00000000000000000000000000110000 Z
1E!
#206
0E!
#207
b00000000000000000000000000110001 Z
1E!
#208
0E!
#209
b00000000000000000000000000110010 Z
1E!
#210
#211
0E!
#212
b00000000000000000000000000110011 Z
1E!
#213
0E!
#214
b00000000000000000000000000110100 Z
1E!
#215
0E!
#216
b00000000000000000000000000110101 Z
1E!
#217
0E!
#218
b00000000000000000000000000110110 Z
1E!
#219
0E!
#220
#221
b00000000000000000000000000110111 Z
1E!
#222
0E!
#223
b00000000000000000000000000111000 Z
1E!
#224
0E!
#225
b00000000000000000000000000111001 Z
1E!
#226
0E!
#227
b00000000000000000000000000111010 Z
1E!
#228
0E!
#229
b00000000000000000000000000111011 Z
1E!
#230
#231
0E!
#232
b00000000000000000000000000111100 Z
1E!
#233
0E!
#234
b00000000000000000000000000111101 Z
1E!
#235
0E!
#236
b00000000000000000000000000111110 Z
1E!
#237
0E!
#238
b00000000000000000000000000111111 Z
1E!
#239
0E!
#240
#241
b00000000000000000000000001000000 Z
1E!
#242
0E!
#243
b00000000000000000000000001000001 Z
1E!
#244
0E!
#245
b00000000000000000000000001000010 Z
1E!
#246
0E!
#247
b00000000000000000000000001000011 Z
1E!
#248
0E!
#249
b00000000000000000000000001000100 Z
1E!
#250
#251
0E!
#252
b00000000000000000000000001000101 Z
1E!
#253
0E!
#254
b00000000000000000000000001000110 Z
1E!
#255
0E!
#256
b00000000000000000000000001000111 Z
1E!
#257
0E!
#258
b00000000000000000000000001001000 Z
1E!
#259
0E!
#260
#261
b00000000000000000000000001001001 Z
1E!
#262
0E!
#263
b00000000000000000000000001001010 Z
1E!
#264
0E!
#265
b00000000000000000000000001001011 Z
1E!
#266
0E!
#267
b00000000000000000000000001001100 Z
1E!
#268
0E!
#269
b00000000000000000000000001001101 Z
1E!
#270
#271
0E!
#272
b00000000000000000000000001001110 Z
1E!
#273
0E!
#274
b00000000000000000000000001001111 Z
1E!
#275
0E!
#276
b00000000000000000000000001010000 Z
1E!
#277
0E!
#278
b00000000000000000000000001010001 Z
1E!
#279
0E!
#280
#281
b00000000000000000000000001010010 Z
1E!
#282
0E!
#283
b00000000000000000000000001010011 Z
1E!
#284
0E!
#285
b00000000000000000000000001010100 Z
1E!
#286
0E!
#287
b00000000000000000000000001010101 Z
1E!
#288
0E!
#289
b00000000000000000000000001010110 Z
1E!
#290
#291
0E!
#292
b00000000000000000000000001010111 Z
1E!
#293
0E!
#294
b00000000000000000000000001011000 Z
1E!
#295
0E!
#296
b00000000000000000000000001011001 Z
1E!
#297
0E!
#298
b00000000000000000000000001011010 Z
1E!
#299
0E!
#300
#301
b00000000000000000000000001011011 Z
1E!
#302
0E!
#303
b00000000000000000000000001011100 Z
1E!
#304
0E!
#305
b00000000000000000000000001011101 Z
1E!
#306
0E!
#307
b00000000000000000000000001011110 Z
1E!
#308
0E!
#309
b00000000000000000000000001011111 Z
1E!
#310
#311
0E!
#312
b00000000000000000000000001100000 Z
1E!
#313
0E!
#314
b00000000000000000000000001100001 Z
1E!
#315
0E!
#316
b00000000000000000000000001100010 Z
1E!
#317
0E!
#318
b00000000000000000000000001100011 Z
1E!
#319
0E!
#320
#321
b00000000000000000000000001100100 Z
1E!
#322
0E!
#323
b00000000000000000000000001100101 Z
1E!
#324
0E!
#325
b00000000000000000000000001100110 Z
1E!
#326
0E!
#327
b00000000000000000000000001100111 Z
1E!
#328
0E!
#329
b00000000000000000000000001101000 Z
1E!
#330
#331
0E!
#332
b00000000000000000000000001101001 Z
1E!
#333
0E!
#334
b00000000000000000000000001101010 Z
1E!
#335
0E!
#336
b00000000000000000000000001101011 Z
1E!
#337
0E!
#338
b00000000000000000000000001101100 Z
1E!
#339
0E!
#340
#341
b00000000000000000000000001101101 Z
1E!
#342
0E!
#343
b00000000000000000000000001101110 Z
1E!
#344
0E!
#345
b00000000000000000000000001101111 Z
1E!
#346
0E!
#347
b00000000000000000000000001110000 Z
1E!
#348
0E!
#349
b00000000000000000000000001110001 Z
1E!
#350
#351
0E!
#352
b00000000000000000000000001110010 Z
1E!
#353
0E!
#354
b00000000000000000000000001110011 Z
1E!
#355
0E!
#356
b00000000000000000000000001110100 Z
1E!
#357
0E!
#358
b00000000000000000000000001110101 Z
1E!
#359
0E!
#360
#361
b00000000000000000000000001110110 Z
1E!
#362
0E!
#363
b00000000000000000000000001110111 Z
1E!
#364
0E!
#365
b00000000000000000000000001111000 Z
1E!
#366
0E!
#367
b00000000000000000000000001111001 Z
1E!
#368
0E!
#369
b00000000000000000000000001111010 Z
1E!
#370
#371
0E!
#372
b00000000000000000000000001111011 Z
1E!
#373
0E!
#374
b00000000000000000000000001111100 Z
1E!
#375
0E!
#376
b00000000000000000000000001111101 Z
1E!
#377
0E!
#378
b00000000000000000000000001111110 Z
1E!
#379
0E!
#380
#381
b00000000000000000000000001111111 Z
1E!
#382
0E!
#383
b00000000000000000000000010000000 Z
1E!
#384
0E!
#385
b00000000000000000000000010000001 Z
1E!
#386
0E!
#387
b00000000000000000000000010000010 Z
1E!
#388
0E!
#389
b00000000000000000000000010000011 Z
1E!
#390
#391
0E!
#392
b00000000000000000000000010000100 Z
1E!
#393
0E!
#394
b00000000000000000000000010000101 Z
1E!
#395
0E!
#396
b00000000000000000000000010000110 Z
1E!
#397
0E!
#398
b00000000000000000000000010000111 Z
1E!
#399
0E!
#400
#401
b00000000000000000000000010001000 Z
1E!
#402
0E!
#403
b00000000000000000000000010001001 Z
1E!
#404
0E!
#405
b00000000000000000000000010001010 Z
1E!
#406
0E!
#407
b00000000000000000000000010001011 Z
1E!
#408
0E!
#409
b00000000000000000000000010001100 Z
1E!
#410
#411
0E!
#412
b00000000000000000000000010001101 Z
1E!
#413
0E!
#414
b00000000000000000000000010001110 Z
1E!
#415
0E!
#416
b00000000000000000000000010001111 Z
1E!
#417
0E!
#418
b00000000000000000000000010010000 Z
1E!
#419
0E!
#420
#421
b00000000000000000000000010010001 Z
1E!
#422
0E!
#423
b00000000000000000000000010010010 Z
1E!
#424
0E!
#425
b00000000000000000000000010010011 Z
1E!
#426
0E!
#427
b00000000000000000000000010010100 Z
1E!
#428
0E!
#429
b00000000000000000000000010010101 Z
1E!
#430
#431
0E!
#432
b00000000000000000000000010010110 Z
1E!
#433
0E!
#434
b00000000000000000000000010010111 Z
1E!
#435
0E!
#436
b00000000000000000000000010011000 Z
1E!
#437
0E!
#438
b00000000000000000000000010011001 Z
1E!
#439
0E!
#440
#441
b00000000000000000000000010011010 Z
1E!
#442
0E!
#443
b00000000000000000000000010011011 Z
1E!
#444
0E!
#445
b00000000000000000000000010011100 Z
1E!
#446
0E!
#447
b00000000000000000000000010011101 Z
1E!
#448
0E!
#449
b00000000000000000000000010011110 Z
1E!
#450
#451
0E!
#452
b00000000000000000000000010011111 Z
1E!
#453
0E!
#454
b00000000000000000000000010100000 Z
1E!
#455
0E!
#456
b00000000000000000000000010100001 Z
1E!
#457
0E!
#458
b00000000000000000000000010100010 Z
1E!
#459
0E!
#460
#461
b00000000000000000000000010100011 Z
1E!
#462
0E!
#463
b00000000000000000000000010100100 Z
1E!
#464
0E!
